<svg xmlns="http://www.w3.org/2000/svg" xmlns:xlink="http://www.w3.org/1999/xlink" width="1920" height="836" viewBox="0 0 1920 836">
  <defs>
    <clipPath id="clip-path">
      <rect id="Rectangle_365" data-name="Rectangle 365" width="1920" height="836" transform="translate(0 2486)" fill="#fff" stroke="#707070" stroke-width="1"/>
    </clipPath>
    <clipPath id="clip-path-2">
      <rect id="Rectangle_364" data-name="Rectangle 364" width="2029.449" height="955.532" transform="translate(0 390)" fill="#fff" stroke="#707070" stroke-width="1"/>
    </clipPath>
  </defs>
  <g id="Mask_Group_102" data-name="Mask Group 102" transform="translate(0 -2486)" clip-path="url(#clip-path)">
    <g id="Mask_Group_101" data-name="Mask Group 101" transform="translate(1814.004 4017.048) rotate(-169)" clip-path="url(#clip-path-2)" style="mix-blend-mode: normal;isolation: isolate">
      <g id="Group_597" data-name="Group 597" transform="matrix(-0.951, 0.309, -0.309, -0.951, 2223.729, 919.182)">
        <path id="Path_1616" data-name="Path 1616" d="M2622.935,1017.548c-41.142-105.113-160.406-172.123-269.363-202.975-106.573-30.177-224.69-11.49-326.381-55.385-228.043-98.441-234.082-426.417-403.139-608.386-29.16-31.393-65.658-59.261-108.217-64.2-42.624-4.948-84.166,13.675-122.335,33.275-262.513,134.793-522.743,345.457-814.2,299.3-102.361-16.216-190.761-61.235-271.937-121.659C197.222,215.531,100.382,105.2,0,0" transform="translate(76.245 0)" fill="none" stroke="#00b6eb" stroke-width="1"/>
        <path id="Path_1617" data-name="Path 1617" d="M0,0C100.382,101.69,197.368,208.339,307.142,287.174c46.62,33.535,95.553,62.046,148.045,83.02A536.56,536.56,0,0,0,576.9,403.155c157.178,23,305.055-28.684,448.164-102.918,119.366-61.992,235.423-139.74,353.562-200.688,38.569-19.984,80.673-38.174,123.816-33.026,42.975,5.121,80.068,32.9,109.8,64.274,57.374,60.483,96.867,137.291,131.807,216.818,10.041,22.85,19.763,45.982,29.934,68.464,27.657,61.262,55.444,116.976,90.1,167.9,33.719,49.837,73.866,94.986,125.357,127.65a326.82,326.82,0,0,0,37.812,20.666c41.824,19.406,86.1,28.522,131.424,34.789,63.782,8.851,129.688,12.025,192.129,30.955,109.3,33.178,229.708,100.052,274.613,201.867" transform="translate(73.785 18.427)" fill="none" stroke="#00b6eb" stroke-width="0.968"/>
        <path id="Path_1618" data-name="Path 1618" d="M0,0C100.387,98.187,197.514,201.159,306.931,276.846c46.4,32.21,95.024,59.494,147.072,79.4a535.714,535.714,0,0,0,120.491,30.9c155.393,20.823,301.492-31.323,441.892-106.168,117.176-62.592,230.416-141.135,347.349-201.748,38.969-20.363,81.641-38.12,125.3-32.778,43.392,5.3,81.084,32.978,111.391,64.344,58.634,60.564,99.463,137.691,135.068,217.9,10.246,23.067,20.163,46.506,30.972,68.778,29.333,60.646,58.942,111.066,95.175,159.66,35.351,47.414,76.753,92.872,128.1,126.655A354.646,354.646,0,0,0,2027.3,705.4c41.386,20.579,84.864,31.377,129.591,39.282,62.971,11.193,128.542,16.6,191.128,36.817,109.645,35.508,231.189,102.253,279.869,200.764" transform="translate(71.324 36.849)" fill="none" stroke="#00b6eb" stroke-width="0.935"/>
        <path id="Path_1619" data-name="Path 1619" d="M0,0C100.387,94.672,197.655,193.967,306.715,266.508c46.182,30.885,94.5,56.947,146.1,75.791a535.279,535.279,0,0,0,119.28,28.825c153.615,18.654,297.923-33.962,435.619-109.406,114.992-63.2,225.561-142.26,341.142-202.813,39.417-20.649,82.609-38.066,126.779-32.529,43.808,5.477,82.1,33.059,112.97,64.414,59.9,60.646,102.064,138.091,138.334,218.986,10.447,23.283,20.568,47.025,32.016,69.086,31,60.024,62.365,105.2,100.246,151.425,36.909,45.03,79.635,90.747,130.851,125.649a387.348,387.348,0,0,0,37.309,22.58c40.958,21.742,83.631,34.227,127.769,43.77,62.155,13.534,127.39,21.174,190.123,42.678,109.99,37.833,232.677,104.448,285.125,199.661" transform="translate(68.864 55.276)" fill="none" stroke="#00b6eb" stroke-width="0.903"/>
        <path id="Path_1620" data-name="Path 1620" d="M0,0C100.393,91.163,197.8,186.776,306.5,256.175c45.96,29.555,93.969,54.4,145.125,72.179a535.3,535.3,0,0,0,118.063,26.754c151.836,16.481,294.36-36.6,429.347-112.656,112.8-63.8,220.6-143.574,334.934-203.873,39.828-21,83.572-38.012,128.261-32.275,44.224,5.65,83.107,33.14,114.554,64.479,61.159,60.732,104.659,138.5,141.594,220.067,10.652,23.5,20.974,47.55,33.059,69.394,32.664,59.407,65.772,99.338,105.319,143.19,38.46,42.645,82.522,88.632,133.6,124.649a426.418,426.418,0,0,0,37.054,23.537c40.531,22.915,82.4,37.076,125.947,48.263,61.338,15.88,126.239,25.748,189.123,48.545,110.325,40.158,234.152,106.638,290.375,198.547" transform="translate(66.404 73.704)" fill="none" stroke="#00b6eb" stroke-width="0.871"/>
        <path id="Path_1621" data-name="Path 1621" d="M0,14.982C100.393,102.635,198.082,194.35,306.288,260.824c45.8,28.138,93.439,51.848,144.152,68.567A535.558,535.558,0,0,0,567.3,354.079c150.046,14.3,290.786-39.244,423.07-115.9,110.617-64.414,215.628-144.909,328.727-204.938,40.239-21.358,84.534-37.958,129.742-32.026,44.635,5.829,84.117,33.221,116.138,64.549,62.419,60.813,107.255,138.9,144.86,221.154,10.847,23.715,21.369,48.069,34.092,69.7,34.335,58.791,69.178,93.466,110.4,134.949,40,40.261,85.41,86.518,136.344,123.654,11.858,8.678,24.078,16.875,36.8,24.489,40.1,24.089,81.165,39.931,124.119,52.757,60.521,18.222,125.092,30.323,188.122,54.406,110.666,42.489,235.64,108.839,295.631,197.444" transform="translate(63.944 77.144)" fill="none" stroke="#00b6eb" stroke-width="0.839"/>
        <path id="Path_1622" data-name="Path 1622" d="M0,35.153C100.4,119.3,198.244,207.292,306.077,270.663c45.587,26.792,92.91,49.3,143.179,64.95A536.426,536.426,0,0,0,564.9,358.235c148.267,12.128,287.223-41.888,416.8-119.15,108.422-65.014,210.653-146.245,322.514-206,40.65-21.715,85.5-37.909,131.224-31.777,45.051,6,85.128,33.3,117.722,64.62,63.679,60.894,109.85,139.3,148.121,222.241,11.052,23.926,21.774,48.588,35.135,70.011,36.006,58.169,72.568,87.594,115.473,126.714,41.526,37.871,88.287,84.393,139.086,122.648,11.836,8.949,23.964,17.476,36.552,25.451,39.672,25.251,79.927,42.775,122.291,57.245,59.7,20.563,123.941,34.9,187.117,60.272,111.012,44.814,237.126,111.028,300.881,196.336" transform="translate(61.484 75.4)" fill="none" stroke="#00b6eb" stroke-width="0.806"/>
        <path id="Path_1623" data-name="Path 1623" d="M0,55.327C100.393,135.962,198.4,220.237,305.855,280.5c45.376,25.446,92.385,46.738,142.206,61.338a537.783,537.783,0,0,0,114.43,20.552C708.978,372.348,846.145,317.867,973.021,240,1079.259,174.374,1178.7,92.409,1289.328,32.936c41.056-22.072,86.464-37.855,132.705-31.529,45.463,6.18,86.14,33.389,119.3,64.69,64.939,60.975,112.451,139.7,151.387,223.322,11.258,24.148,22.174,49.112,36.178,70.319,37.671,57.553,75.953,81.728,120.545,118.479,43.051,35.487,91.174,82.279,141.827,121.648,11.815,9.224,23.856,18.07,36.3,26.408,39.245,26.424,78.695,45.63,120.464,61.738,58.894,22.91,122.795,39.471,186.116,66.134,111.353,47.139,238.608,113.224,306.137,195.232" transform="translate(59.029 73.653)" fill="none" stroke="#00b6eb" stroke-width="0.774"/>
        <path id="Path_1624" data-name="Path 1624" d="M0,75.5c100.4,77.126,198.552,157.686,305.645,214.844,45.16,24.1,91.855,44.192,141.232,57.726A539.544,539.544,0,0,0,560.09,366.557c144.7,7.781,280.091-47.171,404.258-125.644,104.048-66.231,200.7-148.943,310.1-208.123,41.466-22.434,87.427-37.8,134.181-31.28,45.884,6.359,87.156,33.47,120.891,64.76,66.2,61.057,115.04,140.1,154.647,224.409,11.458,24.359,22.623,49.6,37.222,70.627,39.455,56.85,79.322,75.861,125.617,110.244,44.565,33.1,94.061,80.16,144.574,120.648,11.793,9.495,23.748,18.66,36.049,27.36,38.812,27.592,77.461,48.48,118.641,66.231,58.077,25.251,121.643,44.046,185.116,71.995,111.694,49.469,240.09,115.424,311.387,194.13" transform="translate(56.569 71.901)" fill="none" stroke="#00b6eb" stroke-width="0.742"/>
        <path id="Path_1625" data-name="Path 1625" d="M0,95.683C100.4,169.3,198.7,246.145,305.428,300.194c44.949,22.758,91.331,41.64,140.264,54.108a541.432,541.432,0,0,0,112,16.421c142.925,5.6,276.522-49.81,397.986-128.888C1057.539,175,1151.395,91.531,1259.563,32.648c41.878-22.8,88.394-37.747,135.668-31.031,46.3,6.537,88.167,33.551,122.475,64.831,67.459,61.143,117.636,140.5,157.913,225.49,11.657,24.58,23.023,50.118,38.255,70.941,41.131,56.223,82.7,69.994,130.694,102,46.068,30.723,96.943,78.045,147.321,119.647,11.771,9.771,23.634,19.255,35.795,28.322A680.438,680.438,0,0,0,2144.5,683.571c57.266,27.592,120.5,48.62,184.116,77.862,112.034,51.794,241.576,117.614,316.643,193.016" transform="translate(54.108 70.146)" fill="none" stroke="#00b6eb" stroke-width="0.71"/>
        <path id="Path_1626" data-name="Path 1626" d="M0,115.871c100.4,70.1,198.855,143.238,305.217,194.173,44.727,21.423,90.8,39.093,139.286,50.5A543.915,543.915,0,0,0,555.288,374.9C696.429,378.324,828.247,322.442,947,242.763c99.679-67.448,190.734-151.673,297.68-210.253,42.283-23.158,89.362-37.692,137.15-30.782,46.712,6.716,89.179,33.637,124.06,64.9,68.718,61.224,120.231,140.9,161.173,226.577,11.858,24.791,23.429,50.637,39.3,71.243,42.8,55.6,86.048,64.138,135.766,93.769,47.566,28.355,99.831,75.926,150.068,118.647,11.75,10.046,23.526,19.849,35.546,29.279,37.952,29.928,74.99,54.178,114.987,75.212,56.449,29.939,119.344,53.195,183.11,83.723,112.38,54.119,243.058,119.81,321.893,191.913" transform="translate(51.648 68.385)" fill="none" stroke="#00b6eb" stroke-width="0.677"/>
        <path id="Path_1627" data-name="Path 1627" d="M0,136.06c100.4,66.6,199,136.02,305,183.845,44.511,20.082,90.276,36.541,138.318,46.885a547.6,547.6,0,0,0,109.569,12.285c139.361,1.254,269.558-54.854,385.442-135.382C1035.96,175.845,1124.073,90.646,1229.8,32.38c42.689-23.526,90.325-37.644,138.631-30.534,47.128,6.894,90.19,33.718,125.638,64.971,69.983,61.305,122.832,141.3,164.439,227.664,12.063,25.008,23.834,51.151,40.342,71.552,44.473,54.974,89.394,58.288,140.838,85.534,49.058,25.981,102.718,73.806,152.814,117.641,11.722,10.317,23.412,20.45,35.292,30.236,37.525,31.1,73.758,57.034,113.164,79.705,55.628,32.28,118.193,57.769,182.1,89.584,112.721,56.45,244.545,122.01,327.148,190.81" transform="translate(49.188 66.618)" fill="none" stroke="#00b6eb" stroke-width="0.645"/>
        <path id="Path_1628" data-name="Path 1628" d="M0,156.257c100.4,63.09,199.142,128.8,304.79,173.513,44.289,18.741,89.746,33.983,137.339,43.267a551.217,551.217,0,0,0,108.357,10.219c137.583-.919,266.005-57.488,379.17-138.626,95.456-68.448,180.752-154.425,285.265-212.378,43.094-23.894,91.287-37.59,140.113-30.285,47.544,7.072,91.2,33.8,127.223,65.041,71.243,61.386,125.427,141.7,167.7,228.746,12.269,25.224,24.24,51.675,41.38,71.865,46.149,54.346,92.742,52.443,145.915,77.294,50.54,23.623,105.6,71.692,155.561,116.646,11.7,10.587,23.3,21.039,35.038,31.193,37.1,32.269,72.525,59.883,111.337,84.193C2194,711.567,2256.234,739.289,2320.3,772.4c113.056,58.775,246.026,124.2,332.4,189.7" transform="translate(46.728 64.848)" fill="none" stroke="#00b6eb" stroke-width="0.613"/>
        <path id="Path_1629" data-name="Path 1629" d="M0,176.451c100.409,59.58,199.282,121.594,304.579,163.179,44.067,17.405,89.216,31.437,136.366,39.655a555.317,555.317,0,0,0,107.141,8.154c135.8-3.1,262.453-60.121,372.9-141.876,93.277-69.043,175.757-155.81,279.058-213.438,43.5-24.262,92.25-37.536,141.594-30.031,47.955,7.24,92.212,33.881,128.807,65.106,72.5,61.467,128.023,142.108,170.96,229.832,12.469,25.44,24.64,52.189,42.424,72.168,47.814,53.725,96.083,46.609,150.987,69.064,52.021,21.271,108.487,69.567,158.308,115.641,11.679,10.863,23.191,21.634,34.789,32.15,36.665,33.437,71.287,62.733,109.509,88.686,54,36.963,115.9,66.918,180.1,101.312,113.4,61.1,247.508,126.4,337.654,188.6" transform="translate(44.268 63.077)" fill="none" stroke="#00b6eb" stroke-width="0.581"/>
        <path id="Path_1630" data-name="Path 1630" d="M0,196.658C100.409,252.729,199.423,311.044,304.363,349.5c43.846,16.07,88.692,28.884,135.4,36.038a560.513,560.513,0,0,0,105.924,6.088c134.019-5.272,258.9-62.76,366.625-145.12,91.1-69.648,170.76-157.2,272.851-214.5,43.9-24.634,93.218-37.482,143.07-29.782,48.377,7.419,93.229,33.962,130.4,65.177,73.763,61.554,130.618,142.508,174.226,230.914,12.669,25.656,25.04,52.713,43.462,72.482,49.48,53.1,99.414,40.78,156.058,60.824,53.5,18.93,111.375,67.453,161.054,114.64,11.658,11.138,23.078,22.228,34.535,33.107,36.233,34.611,70.054,65.588,107.681,93.18,53.189,39.309,114.749,71.492,179.1,107.179,113.743,63.425,249,128.591,342.91,187.484" transform="translate(41.807 61.297)" fill="none" stroke="#00b6eb" stroke-width="0.548"/>
        <path id="Path_1631" data-name="Path 1631" d="M0,216.87c100.409,52.557,199.553,107.179,304.147,142.508,43.619,14.74,88.162,26.338,134.419,32.431a566.493,566.493,0,0,0,104.713,4.017c132.24-7.446,255.337-65.4,360.353-148.37,88.919-70.248,165.759-158.6,266.643-215.563,44.3-25.013,94.18-37.428,144.552-29.533,48.788,7.6,94.24,34.043,131.976,65.247,75.023,61.635,133.219,142.908,177.492,232,12.869,25.873,25.44,53.232,44.5,72.79,51.145,52.481,102.75,34.962,161.141,52.584,54.968,16.594,114.251,65.339,163.8,113.645,11.631,11.409,22.969,22.818,34.281,34.064,35.806,35.773,68.821,68.432,105.859,97.668,52.373,41.651,113.6,76.066,178.1,113.04,114.089,65.755,250.482,130.786,348.16,186.381" transform="translate(39.353 59.512)" fill="none" stroke="#00b6eb" stroke-width="0.516"/>
        <path id="Path_1632" data-name="Path 1632" d="M0,237.084c100.409,49.053,199.683,99.982,303.931,132.181,43.4,13.4,87.638,23.786,133.452,28.814a572.673,572.673,0,0,0,103.5,1.952c130.456-9.619,251.78-68.042,354.081-151.614C981.7,177.558,1055.711,88.412,1155.4,31.795,1200.1,6.4,1250.538-5.59,1301.429,2.5c49.2,7.775,95.251,34.129,133.56,65.317,76.283,61.716,135.814,143.309,180.753,233.087,13.074,26.084,25.84,53.752,45.543,73.1,52.811,51.859,106.081,29.149,166.213,44.349,56.439,14.264,117.139,63.214,166.543,112.64,11.609,11.679,22.855,23.418,34.027,35.021,35.378,36.946,67.583,71.287,104.037,102.161,51.556,43.992,112.445,80.641,177.1,118.9,114.424,68.086,251.958,132.981,353.41,185.278" transform="translate(36.892 57.719)" fill="none" stroke="#00b6eb" stroke-width="0.484"/>
        <path id="Path_1633" data-name="Path 1633" d="M0,257.306c100.415,45.544,199.812,92.785,303.72,121.843,43.17,12.079,87.108,21.233,132.473,25.2a580.185,580.185,0,0,0,102.285-.114c128.677-11.8,248.216-70.686,347.809-154.863,84.555-71.465,155.745-161.411,254.223-217.683,45.1-25.775,96.11-37.33,147.521-29.041,49.62,7.954,96.262,34.21,135.144,65.387,77.542,61.8,138.41,143.709,184.013,234.169,13.28,26.305,26.246,54.276,46.587,73.406,54.471,51.243,109.412,23.353,171.285,36.114,57.915,11.95,120.026,61.1,169.284,111.639,11.593,11.955,22.747,24.013,33.783,35.979,34.946,38.114,66.345,74.136,102.2,106.654,50.745,46.339,111.3,85.215,176.1,124.768,114.765,70.405,253.445,135.176,358.666,184.17" transform="translate(34.432 55.924)" fill="none" stroke="#00b6eb" stroke-width="0.452"/>
        <path id="Path_1634" data-name="Path 1634" d="M0,277.534c100.414,42.029,199.942,85.594,303.5,111.51,42.948,10.749,86.583,18.681,131.5,21.59a588.537,588.537,0,0,0,101.069-2.185c126.9-13.972,244.653-73.33,341.536-158.108,82.371-72.076,150.738-162.828,248.016-218.748,45.5-26.159,97.078-37.276,149-28.793,50.031,8.132,97.273,34.292,136.728,65.458,78.8,61.878,141.005,144.114,187.279,235.255,13.474,26.516,26.641,54.8,47.62,73.714,56.136,50.621,112.748,17.557,176.362,27.879,59.386,9.63,122.908,58.98,172.031,110.639,11.571,12.225,22.639,24.6,33.529,36.936,34.519,39.282,65.112,76.986,100.382,111.142,49.923,48.68,110.147,89.789,175.091,130.629,115.111,72.736,254.932,137.372,363.922,183.067" transform="translate(31.972 54.123)" fill="none" stroke="#00b6eb" stroke-width="0.419"/>
        <path id="Path_1635" data-name="Path 1635" d="M0,297.762c100.42,38.525,200.066,78.413,303.293,101.182,42.721,9.419,86.053,16.129,130.532,17.973a597.285,597.285,0,0,0,99.857-4.25c125.108-16.146,241.084-75.98,335.259-161.352C949.127,178.623,1014.661,87.071,1110.75,31.5,1156.645,4.959,1208.79-5.72,1261.233,2.959c50.448,8.311,98.284,34.378,138.307,65.528,80.068,61.959,143.606,144.514,190.545,236.342,13.68,26.732,27.041,55.314,48.663,74.023,57.8,50,116.078,11.771,181.433,19.638,60.862,7.327,125.8,56.866,174.778,109.639,11.549,12.5,22.526,25.2,33.275,37.893,34.092,40.456,63.879,79.841,98.554,115.635,49.112,51.021,109,94.364,174.091,136.49,115.451,75.066,256.413,139.567,369.172,181.958" transform="translate(29.512 52.318)" fill="none" stroke="#00b6eb" stroke-width="0.387"/>
        <path id="Path_1636" data-name="Path 1636" d="M0,318c100.42,35.011,200.191,71.232,303.076,90.844,42.494,8.1,85.529,13.583,129.558,14.361a607.51,607.51,0,0,0,98.646-6.316c123.33-18.319,237.516-78.635,328.987-164.6,78-73.3,140.708-165.667,235.6-220.873,46.29-26.933,99-37.168,151.96-28.3,50.864,8.484,99.3,34.459,139.9,65.6,81.328,62.046,146.2,144.914,193.805,237.424,13.88,26.949,27.4,55.882,49.707,74.331,59.358,49.512,119.415,5.991,186.505,11.4,62.343,5.029,128.682,54.746,177.524,108.639,11.523,12.777,22.412,25.792,33.021,38.85,33.659,41.624,62.646,82.69,96.732,120.129,48.3,53.367,107.849,98.938,173.091,142.357,115.792,77.386,257.9,141.762,374.423,180.85" transform="translate(27.052 50.506)" fill="none" stroke="#00b6eb" stroke-width="0.355"/>
        <path id="Path_1637" data-name="Path 1637" d="M0,338.247c100.425,31.5,200.315,64.057,302.865,80.511,42.267,6.78,85,11.03,128.585,10.744a618.06,618.06,0,0,0,97.43-8.381c121.545-20.493,233.947-81.29,322.715-167.846,75.807-73.92,135.685-167.1,229.394-221.938A226,226,0,0,1,1234.431,3.291c51.281,8.662,100.312,34.54,141.481,65.669,82.587,62.127,148.8,145.314,197.066,238.511,14.085,27.165,27.808,56.4,50.745,74.639,61.029,48.891,122.761.216,191.583,3.168,63.825,2.736,131.57,52.627,180.271,107.638,11.5,13.042,22.3,26.386,32.772,39.807,33.227,42.791,61.408,85.54,94.9,124.616,47.479,55.709,106.7,103.513,172.085,148.218,116.133,79.716,259.382,143.957,379.678,179.747" transform="translate(24.591 48.687)" fill="none" stroke="#00b6eb" stroke-width="0.323"/>
        <path id="Path_1638" data-name="Path 1638" d="M0,358.488c100.42,28,200.439,56.9,302.644,70.178,42.04,5.467,84.474,8.478,127.612,7.137a630.311,630.311,0,0,0,96.218-10.452c119.766-22.672,230.373-83.945,316.442-171.1,73.617-74.536,130.667-168.527,223.187-223,47.068-27.711,100.933-37.065,154.923-27.792,51.7,8.835,101.323,34.621,143.065,65.734,83.847,62.208,151.392,145.715,200.331,239.592,14.285,27.387,28.209,56.926,51.783,74.953,62.695,48.269,126.12-6.564,196.655-5.072,65.3,1.384,134.452,50.513,183.018,106.638,11.479,13.318,22.19,26.981,32.518,40.764,32.8,43.959,60.175,88.389,93.077,129.11,46.668,58.05,105.551,108.087,171.085,154.085,116.479,82.041,260.864,146.147,384.933,178.638" transform="translate(22.136 46.868)" fill="none" stroke="#00b6eb" stroke-width="0.29"/>
        <path id="Path_1639" data-name="Path 1639" d="M0,378.744c100.42,24.483,200.564,49.74,302.433,59.845,41.813,4.147,83.945,5.926,126.639,3.52a643.589,643.589,0,0,0,95-12.517c117.987-24.845,226.8-86.6,310.17-174.34,71.422-75.158,125.638-169.965,216.98-224.063,47.458-28.111,101.9-37.011,156.4-27.544,52.108,9.014,102.334,34.7,144.644,65.8,85.107,62.289,153.993,146.12,203.6,240.679,14.486,27.6,28.609,57.445,52.827,75.255,64.366,47.658,129.45-11.312,201.726-13.3,66.8-1.844,137.339,48.388,185.765,105.632,11.458,13.593,22.083,27.576,32.264,41.721,32.372,45.133,58.942,91.244,91.255,133.6,45.852,60.4,104.4,112.661,170.079,159.946,116.82,84.366,262.35,148.348,390.189,177.535" transform="translate(19.676 45.039)" fill="none" stroke="#00b6eb" stroke-width="0.258"/>
        <path id="Path_1640" data-name="Path 1640" d="M0,399c100.425,20.979,200.688,42.586,302.217,49.518,41.586,2.833,83.415,3.374,125.665-.1a657.229,657.229,0,0,0,93.791-14.583c116.2-27.019,223.219-89.265,303.9-177.589,69.227-75.78,120.61-171.4,210.767-225.123C1084.185,2.614,1139.2-5.832,1194.229,3.83c52.524,9.192,103.345,34.784,146.229,65.874,86.367,62.37,156.588,146.52,206.858,241.766,14.691,27.814,29.014,57.964,53.865,75.564,66.036,47.036,132.808-17.075,206.8-21.542,68.3-4.126,140.227,46.274,188.512,104.637,11.431,13.864,21.969,28.165,32.015,42.678,31.94,46.3,57.7,94.088,89.422,138.091,45.041,62.738,103.253,117.236,169.084,165.807,117.155,86.7,263.826,150.543,395.434,176.427" transform="translate(17.216 43.206)" fill="none" stroke="#00b6eb" stroke-width="0.226"/>
        <path id="Path_1641" data-name="Path 1641" d="M0,419.266c100.425,17.465,200.818,35.443,302.006,39.18,41.359,1.53,82.885.827,124.692-3.7a672.763,672.763,0,0,0,92.574-16.654C633.7,408.9,738.734,346.006,816.9,257.254,883.772,180.717,932.479,84.4,1021.458,31.066c48.231-28.912,103.832-36.9,159.367-27.046,52.946,9.37,104.367,34.87,147.818,65.945,87.627,62.457,159.184,146.92,210.118,242.847,14.9,28.03,29.42,58.488,54.908,75.877,67.7,46.414,136.166-22.834,211.881-29.782,69.783-6.4,143.1,44.159,191.253,103.637,11.409,14.139,21.855,28.76,31.761,43.635,31.512,47.469,56.471,96.943,87.6,142.584,44.219,65.079,102.1,121.81,168.078,171.674,117.5,89.022,265.313,152.733,400.69,175.318" transform="translate(14.756 41.367)" fill="none" stroke="#00b6eb" stroke-width="0.194"/>
        <path id="Path_1642" data-name="Path 1642" d="M0,439.538c100.43,13.956,200.953,28.3,301.789,28.847,41.137.222,82.36-1.725,123.724-7.321a689.465,689.465,0,0,0,91.358-18.719c112.645-31.372,215.9-94.726,291.359-184.078,64.679-77.142,110.542-174.3,198.347-227.253,48.615-29.317,104.794-36.849,160.849-26.8,53.357,9.543,105.378,34.951,149.4,66.015,88.886,62.538,161.779,147.32,213.378,243.934,15.1,28.246,29.82,59.007,55.952,76.18,69.367,45.8,139.523-28.582,216.953-38.012,71.286-8.684,145.99,42.04,194,102.631,11.388,14.41,21.748,29.36,31.507,44.592,31.079,48.642,55.239,99.8,85.772,147.077,43.408,67.421,100.955,126.384,167.078,177.535,117.842,91.347,266.8,154.934,405.946,174.215" transform="translate(12.296 39.522)" fill="none" stroke="#00b6eb" stroke-width="0.161"/>
        <path id="Path_1643" data-name="Path 1643" d="M0,459.813c100.431,10.452,201.083,21.174,301.578,18.514,40.91-1.081,81.831-4.277,122.746-10.933a706.257,706.257,0,0,0,90.146-20.785C625.331,413.064,726.8,349.245,799.557,259.282,862.052,181.534,905.065,83.531,991.7,30.969c48.993-29.728,105.757-36.8,162.331-26.549,53.773,9.722,106.389,35.032,150.981,66.085,90.152,62.619,164.38,147.721,216.65,245.015,15.3,28.463,30.22,59.532,56.985,76.494,71.044,45.181,142.892-34.34,222.03-46.252,72.79-10.96,148.878,39.92,196.747,101.636a519.273,519.273,0,0,1,31.253,45.549c30.653,49.8,54.006,102.642,83.95,151.565,42.592,69.767,99.8,130.959,166.073,183.4,118.187,93.677,268.281,157.129,411.2,173.112" transform="translate(9.835 37.668)" fill="none" stroke="#00b6eb" stroke-width="0.129"/>
        <path id="Path_1644" data-name="Path 1644" d="M0,480.1c100.436,6.937,201.224,14.048,301.362,8.181,40.694-2.384,81.306-6.829,121.778-14.55a724.165,724.165,0,0,0,88.93-22.85c109.082-35.719,208.766-100.009,278.815-190.572C851.189,181.947,891.353,83.095,976.817,30.928c49.372-30.139,106.719-36.746,163.812-26.3,54.184,9.9,107.4,35.119,152.565,66.155,91.412,62.7,166.975,148.126,219.91,246.1,15.5,28.679,30.62,60.051,58.028,76.8,72.709,44.56,146.261-40.093,227.1-54.492,74.3-13.231,151.76,37.806,199.488,100.636a493.966,493.966,0,0,1,31.009,46.506c30.22,50.978,52.768,105.5,82.122,156.058,41.775,72.109,98.652,135.533,165.072,189.263,118.522,96,269.763,159.319,416.446,172" transform="translate(7.375 35.812)" fill="none" stroke="#00b6eb" stroke-width="0.097"/>
        <path id="Path_1645" data-name="Path 1645" d="M0,500.4c100.436,3.428,201.38,7.078,301.151-2.157a962.341,962.341,0,0,0,120.8-18.157,745.178,745.178,0,0,0,87.719-24.921c107.3-37.893,205.2-102.648,272.543-193.821,58.12-78.959,95.343-178.806,179.725-230.438C1011.633.271,1069.624-5.785,1127.23,4.856c54.6,10.079,108.411,35.2,154.15,66.226,92.671,62.781,169.57,148.526,223.171,247.189,15.7,28.89,31.026,60.57,59.073,77.1C1638,439.318,1713.28,349.659,1795.8,332.653c75.834-15.394,154.647,35.687,202.235,99.63a472.293,472.293,0,0,1,30.755,47.463c29.793,52.146,51.535,108.347,80.295,160.552,40.964,74.45,97.505,140.107,164.072,195.124,118.863,98.333,271.25,161.52,421.7,170.9" transform="translate(4.915 33.934)" fill="none" stroke="#00b6eb" stroke-width="0.065"/>
        <path id="Path_1646" data-name="Path 1646" d="M0,520.685c100.436-.081,201.521-.108,300.93-12.485a1001.512,1001.512,0,0,0,119.831-21.774,765.016,765.016,0,0,0,86.5-26.987C612.782,419.367,708.9,354.147,773.533,262.373c55.93-79.57,90.341-180.206,173.518-231.5,50.1-31.015,108.649-36.638,166.775-25.8,55.017,10.257,109.422,35.281,155.734,66.3,93.926,62.868,172.166,148.926,226.431,248.27,15.908,29.112,31.431,61.094,60.11,77.418,76.045,43.327,153.025-51.529,237.251-70.962,77.337-17.724,157.534,33.567,204.981,98.635a452.693,452.693,0,0,1,30.5,48.42c29.366,53.314,50.3,111.2,78.472,165.039,40.148,76.8,96.354,144.687,163.066,200.991,119.209,100.652,272.732,163.709,426.957,169.787" transform="translate(2.46 32.073)" fill="none" stroke="#00b6eb" stroke-width="0.032"/>
        <path id="Path_1647" data-name="Path 1647" d="M0,540.978c141.038-5.039,283.627-10.311,419.577-48.209S686.274,380.626,764.86,263.4c53.746-80.17,85.339-181.6,167.31-232.563,98.225-61.073,229.092-22.985,325.57,40.812a710.347,710.347,0,0,1,229.7,249.357c16.1,29.322,31.826,61.613,61.148,77.726,77.716,42.705,156.383-57.342,242.323-79.2,78.846-20.055,160.417,31.447,207.728,97.63s70.687,146.061,106.892,218.91c109.66,220.64,347.927,371.2,594.279,375.536" transform="translate(0 30.207)" fill="none" stroke="#00b6eb" stroke-width="1"/>
      </g>
    </g>
  </g>
</svg>
