<svg xmlns="http://www.w3.org/2000/svg" xmlns:xlink="http://www.w3.org/1999/xlink" width="681" height="681" viewBox="0 0 681 681">
  <defs>
    <linearGradient id="linear-gradient" x1="0.181" y1="0.12" x2="0.798" y2="0.855" gradientUnits="objectBoundingBox">
      <stop offset="0.071" stop-color="#00b6eb" stop-opacity="0.251"/>
      <stop offset="1" stop-color="#00b6eb" stop-opacity="0.102"/>
    </linearGradient>
    <linearGradient id="linear-gradient-2" x1="0.139" y1="0.16" x2="0.837" y2="0.818" xlink:href="#linear-gradient"/>
    <linearGradient id="linear-gradient-3" x1="0.139" y1="0.16" x2="0.837" y2="0.818" gradientUnits="objectBoundingBox">
      <stop offset="0.071" stop-color="#00b6eb" stop-opacity="0.251"/>
      <stop offset="0.994" stop-color="#00b6eb" stop-opacity="0.102"/>
    </linearGradient>
  </defs>
  <g id="Group_1" data-name="Group 1" transform="translate(1405.172 -228.3)" opacity="0.25">
    <circle id="Ellipse_1" data-name="Ellipse 1" cx="340.5" cy="340.5" r="340.5" transform="translate(-1405.172 228.3)" fill="url(#linear-gradient)"/>
    <circle id="Ellipse_2" data-name="Ellipse 2" cx="261.395" cy="261.395" r="261.395" transform="translate(-1326.044 307.383)" fill="url(#linear-gradient-2)"/>
    <circle id="Ellipse_3" data-name="Ellipse 3" cx="186.5" cy="186.5" r="186.5" transform="translate(-1251.172 382.3)" fill="url(#linear-gradient-3)"/>
  </g>
</svg>
