<svg xmlns="http://www.w3.org/2000/svg" xmlns:xlink="http://www.w3.org/1999/xlink" width="428" height="631" viewBox="0 0 428 631">
  <defs>
    <clipPath id="clip-path">
      <rect id="Rectangle_207" data-name="Rectangle 207" width="428" height="631" transform="translate(941 470)" fill="#fff" stroke="#707070" stroke-width="1"/>
    </clipPath>
  </defs>
  <g id="Mask_Group_60" data-name="Mask Group 60" transform="translate(-941 -470)" clip-path="url(#clip-path)">
    <g id="Group_364" data-name="Group 364" transform="matrix(-0.695, -0.719, 0.719, -0.695, 1544.082, 1612.828)">
      <path id="Path_773" data-name="Path 773" d="M1907.637,740.054c-29.922-76.448-116.661-125.183-195.905-147.622-77.509-21.947-163.415-8.357-237.374-40.281-165.853-71.6-170.246-310.129-293.2-442.473-21.208-22.832-47.752-43.1-78.705-46.695-31-3.6-61.213,9.945-88.973,24.2C822.558,185.217,633.294,338.431,421.317,304.859c-74.446-11.794-138.739-44.536-197.777-88.481C143.438,156.753,73.007,76.511,0,0" transform="translate(55.452 0)" fill="none" stroke="#00b6eb" stroke-width="1"/>
      <path id="Path_774" data-name="Path 774" d="M0,0C73.007,73.959,143.544,151.523,223.382,208.859c33.906,24.389,69.5,45.126,107.672,60.38a390.238,390.238,0,0,0,88.517,23.973c114.314,16.725,221.864-20.862,325.945-74.851C832.33,173.274,916.737,116.728,1002.658,72.4c28.051-14.534,58.673-27.763,90.05-24.02,31.256,3.724,58.233,23.925,79.858,46.746,41.728,43.989,70.451,99.85,95.862,157.689,7.3,16.619,14.373,33.442,21.77,49.793,20.115,44.555,40.324,85.076,65.527,122.112,24.523,36.246,53.722,69.082,91.171,92.839a237.694,237.694,0,0,0,27.5,15.03c30.418,14.114,62.621,20.744,95.583,25.3,46.388,6.438,94.321,8.746,139.734,22.514,79.5,24.13,167.064,72.767,199.724,146.816" transform="translate(53.663 13.402)" fill="none" stroke="#00b6eb" stroke-width="0.968"/>
      <path id="Path_775" data-name="Path 775" d="M0,0C73.011,71.41,143.65,146.3,223.228,201.348c33.745,23.426,69.11,43.269,106.964,57.749a389.621,389.621,0,0,0,87.632,22.47c113.016,15.144,219.272-22.781,321.384-77.215,85.221-45.523,167.58-102.646,252.624-146.73,28.342-14.81,59.377-27.724,91.128-23.839,31.558,3.854,58.972,23.984,81.013,46.8,42.644,44.048,72.339,100.141,98.234,158.476,7.452,16.776,14.664,33.823,22.526,50.021,21.333,44.107,42.868,80.778,69.22,116.119,25.711,34.484,55.822,67.545,93.169,92.115a257.924,257.924,0,0,0,27.319,15.722c30.1,14.967,61.721,22.82,94.25,28.57,45.8,8.14,93.488,12.073,139.006,26.776,79.744,25.825,168.142,74.368,203.546,146.014" transform="translate(51.874 26.8)" fill="none" stroke="#00b6eb" stroke-width="0.935"/>
      <path id="Path_776" data-name="Path 776" d="M0,0C73.011,68.854,143.753,141.071,223.071,193.829c33.588,22.462,68.728,41.417,106.256,55.122a389.3,389.3,0,0,0,86.751,20.964c111.723,13.567,216.677-24.7,316.822-79.57,83.633-45.967,164.048-103.464,248.109-147.5,28.668-15.018,60.081-27.685,92.205-23.658,31.861,3.984,59.707,24.043,82.162,46.848,43.564,44.107,74.23,100.432,100.609,159.266,7.6,16.933,14.959,34.2,23.285,50.246,22.545,43.655,45.357,76.511,72.908,110.13,26.843,32.75,57.918,66,95.167,91.383a281.693,281.693,0,0,0,27.134,16.422c29.789,15.813,60.824,24.893,92.925,31.834,45.2,9.843,92.65,15.4,138.275,31.039,79.995,27.516,169.223,75.964,207.369,145.211" transform="translate(50.084 40.202)" fill="none" stroke="#00b6eb" stroke-width="0.903"/>
      <path id="Path_777" data-name="Path 777" d="M0,0C73.015,66.3,143.859,135.84,222.918,186.314c33.426,21.5,68.343,39.561,105.548,52.495a389.318,389.318,0,0,0,85.866,19.458c110.429,11.986,214.085-26.619,312.26-81.934,82.04-46.4,160.438-104.42,243.595-148.275C999.154,12.785,1030.968.413,1063.47,4.585c32.164,4.11,60.443,24.1,83.314,46.9,44.48,44.17,76.117,100.727,102.98,160.053,7.747,17.091,15.254,34.582,24.043,50.47,23.756,43.206,47.835,72.248,76.6,104.14,27.972,31.016,60.018,64.462,97.164,90.656a310.144,310.144,0,0,0,26.949,17.118c29.478,16.666,59.927,26.965,91.6,35.1,44.61,11.55,91.812,18.727,137.547,35.306,80.239,29.207,170.3,77.557,211.187,144.4" transform="translate(48.295 53.604)" fill="none" stroke="#00b6eb" stroke-width="0.871"/>
      <path id="Path_778" data-name="Path 778" d="M0,10.9c73.015,63.75,144.063,130.453,222.76,178.8C256.073,210.16,290.718,227.4,327.6,239.563a389.5,389.5,0,0,0,84.989,17.956c109.127,10.4,211.486-28.542,307.695-84.293,80.451-46.848,156.824-105.391,239.08-149.05C988.631,8.643,1020.846-3.43,1053.726.884c32.463,4.239,61.178,24.161,84.466,46.946,45.4,44.229,78.005,101.018,105.356,160.843,7.889,17.248,15.541,34.96,24.794,50.694,24.971,42.758,50.312,67.977,80.29,98.147,29.093,29.281,62.118,62.924,99.162,89.932,8.624,6.312,17.511,12.273,26.765,17.81,29.167,17.519,59.031,29.042,90.271,38.369,44.017,13.253,90.979,22.054,136.82,39.569,80.486,30.9,171.379,79.157,215.01,143.6" transform="translate(46.506 56.106)" fill="none" stroke="#00b6eb" stroke-width="0.839"/>
      <path id="Path_779" data-name="Path 779" d="M0,25.566c73.019,61.2,144.181,125.2,222.607,171.284,33.155,19.486,67.572,35.853,104.133,47.237a390.138,390.138,0,0,0,84.1,16.454c107.833,8.821,208.894-30.465,303.137-86.657C792.836,126.6,867.188,67.522,948.543,24.064,978.108,8.271,1010.724-3.506,1043.981.953c32.765,4.365,61.913,24.22,85.618,47,46.313,44.288,79.893,101.309,107.727,161.634,8.038,17.4,15.836,35.338,25.553,50.918,26.187,42.306,52.778,63.707,83.982,92.158,30.2,27.543,64.21,61.378,101.156,89.2,8.608,6.508,17.429,12.71,26.584,18.51,28.853,18.365,58.13,31.11,88.941,41.633,43.423,14.955,90.141,25.38,136.088,43.836,80.738,32.593,172.46,80.75,218.828,142.793" transform="translate(44.716 54.837)" fill="none" stroke="#00b6eb" stroke-width="0.806"/>
      <path id="Path_780" data-name="Path 780" d="M0,40.239C73.015,98.884,144.291,160.176,222.446,204.008c33,18.506,67.191,33.992,103.425,44.61a391.124,391.124,0,0,0,83.224,14.947c106.539,7.24,206.3-32.384,298.575-89.016,77.266-47.729,149.589-107.342,230.047-150.6C967.576,7.9,1000.6-3.577,1034.232,1.024,1067.3,5.519,1096.881,25.307,1121,48.072c47.229,44.347,81.784,101.6,110.1,162.42,8.188,17.563,16.127,35.719,26.312,51.142,27.4,41.858,55.24,59.44,87.671,86.169,31.311,25.809,66.31,59.841,103.15,88.473,8.593,6.709,17.35,13.142,26.4,19.206,28.542,19.218,57.234,33.186,87.612,44.9,42.833,16.662,89.307,28.707,135.361,48.1,80.986,34.284,173.537,82.347,222.65,141.991" transform="translate(42.931 53.567)" fill="none" stroke="#00b6eb" stroke-width="0.774"/>
      <path id="Path_781" data-name="Path 781" d="M0,54.911C73.019,111,144.405,169.594,222.293,211.165,255.137,228.7,289.1,243.3,325.009,253.148a392.408,392.408,0,0,0,82.339,13.445c105.242,5.659,203.708-34.307,294.014-91.38C777.035,127.045,847.328,66.889,926.895,23.848,957.053,7.532,990.479-3.644,1024.484,1.1c33.371,4.625,63.388,24.342,87.923,47.1,48.146,44.406,83.668,101.9,112.474,163.211,8.333,17.716,16.453,36.073,27.071,51.366,28.7,41.346,57.69,55.173,91.36,80.18,32.412,24.075,68.41,58.3,105.147,87.746,8.577,6.905,17.271,13.571,26.218,19.9a460.43,460.43,0,0,0,86.287,48.169c42.239,18.365,88.47,32.034,134.633,52.361,81.234,35.978,174.615,83.947,226.469,141.189" transform="translate(41.142 52.293)" fill="none" stroke="#00b6eb" stroke-width="0.742"/>
      <path id="Path_782" data-name="Path 782" d="M0,69.59c73.019,53.541,144.516,109.43,222.135,148.739,32.691,16.552,66.424,30.284,102.013,39.353A393.781,393.781,0,0,0,405.6,269.624C509.55,273.7,606.714,233.4,695.054,175.885,769.138,127.275,837.4,66.569,916.069,23.745c30.457-16.579,64.288-27.453,98.67-22.569,33.674,4.754,64.123,24.4,89.075,47.151,49.062,44.469,85.555,102.186,114.849,164,8.478,17.877,16.745,36.45,27.822,51.594,29.915,40.89,60.144,50.906,95.052,74.187,33.505,22.344,70.506,56.762,107.145,87.018,8.561,7.106,17.189,14,26.033,20.6a494.87,494.87,0,0,0,84.958,51.433c41.649,20.068,87.636,35.361,133.906,56.628,81.481,37.669,175.7,85.54,230.291,140.378" transform="translate(39.353 51.016)" fill="none" stroke="#00b6eb" stroke-width="0.71"/>
      <path id="Path_783" data-name="Path 783" d="M0,84.272c73.019,50.985,144.626,104.176,221.982,141.22,32.53,15.581,66.038,28.432,101.3,36.726a395.582,395.582,0,0,0,80.573,10.441c102.65,2.493,198.52-38.149,284.89-96.1,72.5-49.054,138.719-110.311,216.5-152.915C936,6.8,970.239-3.769,1004.994,1.257c33.973,4.884,64.859,24.464,90.227,47.2,49.978,44.528,87.443,102.477,117.22,164.788,8.624,18.03,17.04,36.828,28.582,51.815,31.13,40.438,62.582,46.647,98.741,68.2,34.594,20.622,72.606,55.22,109.143,86.291,8.545,7.307,17.11,14.436,25.852,21.295a535.535,535.535,0,0,0,83.629,54.7c41.055,21.774,86.8,38.688,133.174,60.891,81.733,39.36,176.774,87.136,234.11,139.576" transform="translate(37.563 49.736)" fill="none" stroke="#00b6eb" stroke-width="0.677"/>
      <path id="Path_784" data-name="Path 784" d="M0,98.955c73.023,48.437,144.732,98.926,221.825,133.709,32.372,14.605,65.657,26.576,100.6,34.1A398.27,398.27,0,0,0,402.11,275.7c101.356.912,196.047-39.9,280.328-98.462C753.444,127.891,817.528,65.926,894.424,23.549,925.471,6.439,960.117-3.829,995.25,1.343c34.276,5.014,65.594,24.523,91.376,47.253,50.9,44.587,89.335,102.768,119.6,165.578,8.773,18.188,17.334,37.2,29.341,52.039,32.345,39.982,65.016,42.392,102.43,62.208,35.679,18.9,74.706,53.679,111.14,85.559,8.526,7.5,17.028,14.873,25.667,21.991,27.292,22.62,53.643,41.48,82.3,57.969,40.458,23.477,85.961,42.015,132.443,65.154,81.981,41.055,177.855,88.737,237.932,138.774" transform="translate(35.774 48.451)" fill="none" stroke="#00b6eb" stroke-width="0.645"/>
      <path id="Path_785" data-name="Path 785" d="M0,113.644c73.023,45.885,144.834,93.676,221.671,126.194,32.211,13.63,65.272,24.716,99.886,31.468a400.9,400.9,0,0,0,78.807,7.432c100.063-.669,193.463-41.81,275.767-100.822C745.555,128.136,807.59,65.6,883.6,23.456,914.944,6.079,949.994-3.882,985.5,1.43c34.578,5.144,66.329,24.582,92.528,47.3C1129.847,93.38,1169.255,151.793,1200,215.1c8.923,18.345,17.63,37.583,30.1,52.267,33.564,39.526,67.45,38.141,106.122,56.215,36.757,17.181,76.8,52.141,113.138,84.836,8.51,7.7,16.945,15.3,25.483,22.687,26.981,23.469,52.747,43.552,80.974,61.233,39.868,25.18,85.127,45.342,131.719,69.42,82.224,42.746,178.933,90.33,241.75,137.968" transform="translate(33.985 47.164)" fill="none" stroke="#00b6eb" stroke-width="0.613"/>
      <path id="Path_786" data-name="Path 786" d="M0,128.331c73.027,43.332,144.936,88.434,221.518,118.679,32.05,12.659,64.886,22.864,99.178,28.841a403.878,403.878,0,0,0,77.923,5.93c98.765-2.253,190.88-43.726,271.2-103.185C737.663,128.382,797.649,65.277,872.78,23.365c31.637-17.645,67.092-27.3,102.98-21.841,34.877,5.266,67.065,24.641,93.68,47.351,52.731,44.7,93.11,103.354,124.338,167.155,9.068,18.5,17.92,37.956,30.854,52.487,34.775,39.073,69.88,33.9,109.811,50.23,37.834,15.47,78.9,50.6,115.136,84.1,8.494,7.9,16.866,15.734,25.3,23.383,26.666,24.319,51.846,45.625,79.645,64.5,39.274,26.883,84.289,48.669,130.988,73.683,82.476,44.437,180.01,91.926,245.573,137.166" transform="translate(32.195 45.875)" fill="none" stroke="#00b6eb" stroke-width="0.581"/>
      <path id="Path_787" data-name="Path 787" d="M0,143.027c73.027,40.78,145.039,83.192,221.361,111.164,31.889,11.687,64.5,21.007,98.474,26.21a407.657,407.657,0,0,0,77.038,4.428C494.343,281,585.164,239.185,663.516,179.285,729.77,128.63,787.708,64.951,861.957,23.279c31.928-17.916,67.8-27.26,104.054-21.66,35.184,5.4,67.8,24.7,94.836,47.4,53.647,44.768,95,103.645,126.713,167.941,9.214,18.66,18.212,38.338,31.61,52.715,35.986,38.621,72.3,29.659,113.5,44.237,38.908,13.768,81,49.058,117.133,83.377,8.479,8.1,16.784,16.167,25.117,24.079,26.352,25.172,50.95,47.7,78.316,67.769,38.684,28.589,83.456,52,130.26,77.95,82.724,46.128,181.092,93.523,249.4,136.356" transform="translate(30.406 44.581)" fill="none" stroke="#00b6eb" stroke-width="0.548"/>
      <path id="Path_788" data-name="Path 788" d="M0,157.728c73.027,38.224,145.133,77.95,221.2,103.645,31.724,10.72,64.12,19.155,97.762,23.587a412,412,0,0,0,76.157,2.922c96.177-5.415,185.7-47.564,262.081-107.908C721.874,128.883,777.759,64.626,851.131,23.2,883.35,5,919.627-4.024,956.263,1.717c35.483,5.525,68.54,24.759,95.985,47.453C1106.811,94,1149.136,153.107,1181.336,217.9c9.359,18.817,18.5,38.715,32.365,52.939,37.2,38.169,74.729,25.428,117.2,38.244,39.978,12.069,83.094,47.52,119.127,82.653,8.459,8.3,16.705,16.6,24.932,24.775,26.041,26.017,50.053,49.77,76.991,71.033,38.09,30.292,82.618,55.322,129.529,82.213,82.976,47.823,182.173,95.119,253.214,135.553" transform="translate(28.621 43.282)" fill="none" stroke="#00b6eb" stroke-width="0.516"/>
      <path id="Path_789" data-name="Path 789" d="M0,172.429c73.027,35.676,145.227,72.716,221.046,96.134,31.562,9.749,63.738,17.3,97.058,20.956a416.5,416.5,0,0,0,75.272,1.42c94.88-7,183.117-49.487,257.52-110.267C713.981,129.136,767.809,64.3,840.309,23.124c32.51-18.471,69.2-27.189,106.209-21.3,35.786,5.655,69.275,24.822,97.137,47.5,55.48,44.886,98.777,104.227,131.46,169.522,9.509,18.97,18.793,39.093,33.123,53.164,38.409,37.717,77.152,21.2,120.885,32.254,41.047,10.374,85.194,45.975,121.125,81.922,8.443,8.494,16.623,17.032,24.747,25.471,25.73,26.871,49.152,51.846,75.665,74.3,37.5,31.995,81.781,58.649,128.8,86.476,83.22,49.518,183.246,96.716,257.032,134.751" transform="translate(26.831 41.979)" fill="none" stroke="#00b6eb" stroke-width="0.484"/>
      <path id="Path_790" data-name="Path 790" d="M0,187.137c73.031,33.124,145.322,67.482,220.893,88.615,31.4,8.785,63.353,15.443,96.346,18.329A421.965,421.965,0,0,0,391.63,294c93.586-8.581,180.525-51.41,252.958-112.631,61.5-51.976,113.272-117.393,184.894-158.319,32.8-18.746,69.9-27.15,107.29-21.121,36.089,5.785,70.01,24.881,98.289,47.556,56.4,44.945,100.664,104.518,133.831,170.309,9.658,19.132,19.088,39.475,33.882,53.388,39.616,37.268,79.574,16.985,124.574,26.265,42.121,8.691,87.294,44.437,123.119,81.194,8.431,8.695,16.544,17.464,24.57,26.167,25.416,27.72,48.252,53.918,74.332,77.568,36.906,33.7,80.947,61.976,128.074,90.742,83.467,51.205,184.328,98.313,260.855,133.945" transform="translate(25.042 40.673)" fill="none" stroke="#00b6eb" stroke-width="0.452"/>
      <path id="Path_791" data-name="Path 791" d="M0,201.848c73.03,30.567,145.416,62.252,220.735,81.1,31.236,7.818,62.971,13.587,95.642,15.7a428.036,428.036,0,0,0,73.506-1.589c92.292-10.162,177.934-53.333,248.4-114.99,59.908-52.42,109.63-118.423,180.38-159.093,33.092-19.025,70.6-27.111,108.368-20.941,36.387,5.914,70.746,24.94,99.441,47.607,57.312,45,102.552,104.813,136.206,171.1,9.8,19.285,19.375,39.852,34.633,53.612,40.827,36.816,82,12.769,128.267,20.276,43.191,7,89.39,42.9,125.116,80.467,8.416,8.891,16.465,17.893,24.385,26.863,25.105,28.57,47.355,55.991,73.007,80.833,36.309,35.4,80.109,65.3,127.342,95.005,83.719,52.9,185.41,99.909,264.677,133.143" transform="translate(23.253 39.364)" fill="none" stroke="#00b6eb" stroke-width="0.419"/>
      <path id="Path_792" data-name="Path 792" d="M0,216.56c73.034,28.019,145.506,57.029,220.582,73.589,31.071,6.85,62.586,11.731,94.935,13.072a434.4,434.4,0,0,0,72.625-3.091c90.99-11.742,175.339-55.259,243.831-117.35C690.292,129.911,737.954,63.326,807.838,22.911c33.379-19.3,71.3-27.071,109.445-20.76,36.69,6.044,71.481,25,100.589,47.658,58.232,45.062,104.443,105.1,138.582,171.89,9.949,19.442,19.666,40.229,35.392,53.836,42.035,36.368,84.423,8.561,131.955,14.283,44.264,5.329,91.49,41.358,127.114,79.739,8.4,9.092,16.383,18.325,24.2,27.559,24.795,29.423,46.458,58.067,71.678,84.1,35.719,37.107,79.275,68.63,126.615,99.268,83.967,54.595,186.487,101.506,268.5,132.337" transform="translate(21.464 38.05)" fill="none" stroke="#00b6eb" stroke-width="0.387"/>
      <path id="Path_793" data-name="Path 793" d="M0,231.279c73.034,25.463,145.6,51.807,220.425,66.07,30.905,5.891,62.2,9.879,94.227,10.445A441.834,441.834,0,0,0,386.4,303.2c89.7-13.323,172.743-57.19,239.269-119.713C682.391,130.174,728,63,797.016,22.849c33.666-19.588,72-27.032,110.519-20.579,36.993,6.17,72.22,25.062,101.746,47.709,59.149,45.125,106.331,105.395,140.953,172.676,10.095,19.6,19.93,40.642,36.151,54.06,43.171,36.01,86.849,4.357,135.644,8.294,45.342,3.657,93.59,39.817,129.112,79.012,8.38,9.293,16.3,18.758,24.016,28.255,24.48,30.272,45.562,60.14,70.352,87.369,35.125,38.814,78.438,71.957,125.887,103.535,84.214,56.282,187.565,103.1,272.314,131.53" transform="translate(19.674 36.733)" fill="none" stroke="#00b6eb" stroke-width="0.355"/>
      <path id="Path_794" data-name="Path 794" d="M0,246c73.038,22.911,145.687,46.588,220.271,58.555,30.74,4.931,61.819,8.022,93.519,7.814a449.515,449.515,0,0,0,70.86-6.1c88.4-14.9,170.148-59.121,234.707-122.073,55.134-53.761,98.682-121.53,166.836-161.413a164.371,164.371,0,0,1,111.6-20.4c37.3,6.3,72.956,25.121,102.9,47.76,60.065,45.184,108.219,105.686,143.324,173.467,10.244,19.757,20.225,41.02,36.907,54.284,44.386,35.558,89.283.157,139.336,2.3,46.419,1.99,95.689,38.275,131.11,78.284,8.364,9.485,16.222,19.191,23.835,28.951,24.165,31.122,44.661,62.212,69.023,90.632,34.531,40.517,77.6,75.284,125.156,107.8,84.462,57.977,188.646,104.7,276.136,130.728" transform="translate(17.885 35.41)" fill="none" stroke="#00b6eb" stroke-width="0.323"/>
      <path id="Path_795" data-name="Path 795" d="M0,260.725c73.034,20.363,145.778,41.382,220.11,51.04,30.575,3.976,61.438,6.166,92.811,5.191a458.423,458.423,0,0,0,69.979-7.6C470,292.866,550.448,248.3,613.046,184.918c53.541-54.21,95.033-122.568,162.322-162.184C809.6,2.58,848.776-4.223,888.042,2.521c37.6,6.426,73.691,25.18,104.05,47.807,60.981,45.243,110.106,105.977,145.7,174.253,10.39,19.918,20.516,41.4,37.662,54.512,45.6,35.105,91.726-4.774,143.025-3.689,47.489,1.007,97.786,36.737,133.107,77.557,8.349,9.686,16.139,19.623,23.65,29.647,23.855,31.971,43.765,64.285,67.694,93.9,33.941,42.219,76.766,78.611,124.428,112.065,84.714,59.668,189.724,106.292,279.959,129.922" transform="translate(16.1 34.087)" fill="none" stroke="#00b6eb" stroke-width="0.29"/>
      <path id="Path_796" data-name="Path 796" d="M0,275.457c73.034,17.806,145.868,36.175,219.957,43.525,30.41,3.016,61.052,4.31,92.1,2.56a468.079,468.079,0,0,0,69.094-9.1c85.811-18.07,164.949-62.987,225.584-126.8,51.944-54.662,91.376-123.614,157.808-162.959C799.061,2.239,838.653-4.234,878.3,2.652c37.9,6.556,74.427,25.239,105.2,47.859,61.9,45.3,112,106.272,148.074,175.043,10.535,20.072,20.807,41.779,38.421,54.733,46.813,34.661,94.148-8.227,146.714-9.674,48.582-1.341,99.886,35.192,135.1,76.825,8.333,9.886,16.061,20.056,23.465,30.343,23.544,32.825,42.868,66.361,66.369,97.168,33.348,43.926,75.929,81.938,123.7,116.327,84.962,61.359,190.805,107.892,283.781,129.12" transform="translate(14.31 32.757)" fill="none" stroke="#00b6eb" stroke-width="0.258"/>
      <path id="Path_797" data-name="Path 797" d="M0,290.189c73.038,15.258,145.959,30.972,219.8,36.014,30.245,2.061,60.667,2.454,91.4-.071a478,478,0,0,0,68.213-10.606A433.566,433.566,0,0,0,600.43,186.367c50.348-55.114,87.718-124.66,153.289-163.73C788.518,1.9,828.531-4.242,868.552,2.786c38.2,6.685,75.162,25.3,106.351,47.91,62.814,45.361,113.885,106.563,150.446,175.834,10.684,20.229,21.1,42.156,39.176,54.957,48.028,34.209,96.59-12.419,150.406-15.667,49.672-3,101.986,33.654,137.1,76.1,8.313,10.083,15.978,20.484,23.284,31.039,23.229,33.67,41.968,68.429,65.036,100.432,32.758,45.629,75.1,85.265,122.973,120.59,85.206,63.054,191.879,109.489,287.6,128.314" transform="translate(12.521 31.423)" fill="none" stroke="#00b6eb" stroke-width="0.226"/>
      <path id="Path_798" data-name="Path 798" d="M0,304.928c73.038,12.7,146.053,25.778,219.646,28.495,30.08,1.113,60.281.6,90.687-2.694a489.294,489.294,0,0,0,67.328-12.112c83.22-21.232,159.612-66.97,216.461-131.519C642.76,131.434,678.184,61.385,742.9,22.594,777.975,1.567,818.413-4.245,858.8,2.924,897.31,9.739,934.708,28.285,966.31,50.885c63.73,45.424,115.773,106.854,152.817,176.62,10.834,20.386,21.4,42.538,39.934,55.185,49.239,33.757,99.032-16.607,154.1-21.66,50.753-4.656,104.078,32.117,139.1,75.374,8.3,10.283,15.9,20.917,23.1,31.735,22.918,34.523,41.071,70.506,63.71,103.7,32.16,47.332,74.257,88.591,122.242,124.857,85.457,64.745,192.96,111.081,291.418,127.507" transform="translate(10.732 30.086)" fill="none" stroke="#00b6eb" stroke-width="0.194"/>
      <path id="Path_799" data-name="Path 799" d="M0,319.672c73.042,10.15,146.151,20.583,219.489,20.98a643.476,643.476,0,0,0,89.984-5.325,501.438,501.438,0,0,0,66.444-13.614c81.926-22.816,157.021-68.893,211.9-133.878,47.041-56.1,80.4-126.768,144.256-165.279C767.432,1.234,808.29-4.244,849.059,3.066c38.806,6.941,76.64,25.42,108.659,48.012,64.646,45.483,117.66,107.145,155.188,177.411,10.979,20.543,21.688,42.915,40.694,55.405,50.45,33.312,101.474-20.787,157.788-27.646,51.846-6.316,106.177,30.575,141.094,74.643,8.282,10.48,15.817,21.353,22.915,32.431,22.6,35.377,40.174,72.582,62.381,106.968,31.57,49.034,73.424,91.918,121.514,129.12,85.7,66.436,194.042,112.682,295.241,126.705" transform="translate(8.943 28.744)" fill="none" stroke="#00b6eb" stroke-width="0.161"/>
      <path id="Path_800" data-name="Path 800" d="M0,334.418c73.042,7.6,146.246,15.4,219.335,13.465a663.83,663.83,0,0,0,89.272-7.952,513.647,513.647,0,0,0,65.563-15.117C454.8,300.418,528.6,254,581.511,188.573c45.452-56.545,76.735-127.822,139.741-166.05C756.885.9,798.168-4.241,839.314,3.215c39.109,7.071,77.376,25.479,109.807,48.063,65.567,45.542,119.552,107.436,157.567,178.2,11.125,20.7,21.979,43.3,41.445,55.633,51.669,32.86,103.924-24.975,161.48-33.639,52.939-7.971,108.277,29.034,143.092,73.919a377.645,377.645,0,0,1,22.73,33.127c22.293,36.222,39.278,74.651,61.056,110.232,30.976,50.741,72.586,95.245,120.783,133.383,85.957,68.131,195.119,114.278,299.063,125.9" transform="translate(7.153 27.396)" fill="none" stroke="#00b6eb" stroke-width="0.129"/>
      <path id="Path_801" data-name="Path 801" d="M0,349.17c73.046,5.045,146.348,10.217,219.178,5.95a685.469,685.469,0,0,0,88.568-10.582,526.676,526.676,0,0,0,64.678-16.619c79.334-25.978,151.834-72.735,202.779-138.6,43.859-56.99,73.07-128.884,135.227-166.824C746.338.574,788.046-4.232,829.569,3.366c39.408,7.2,78.111,25.542,110.96,48.114,66.483,45.6,121.439,107.731,159.939,178.988,11.271,20.858,22.27,43.674,42.2,55.857,52.88,32.408,106.374-29.159,165.169-39.632,54.036-9.623,110.374,27.5,145.086,73.192a359.271,359.271,0,0,1,22.553,33.824c21.979,37.076,38.377,76.727,59.727,113.5,30.383,52.444,71.749,98.572,120.056,137.649,86.2,69.822,196.2,115.871,302.877,125.1" transform="translate(5.364 26.046)" fill="none" stroke="#00b6eb" stroke-width="0.097"/>
      <path id="Path_802" data-name="Path 802" d="M0,363.938c73.046,2.493,146.462,5.148,219.025-1.569a699.9,699.9,0,0,0,87.856-13.205,541.957,541.957,0,0,0,63.8-18.125C448.714,303.48,519.916,256.384,568.9,190.074c42.27-57.426,69.342-130.044,130.712-167.6C735.752.2,777.928-4.207,819.825,3.532c39.71,7.33,78.847,25.6,112.112,48.165,67.4,45.66,123.327,108.022,162.31,179.778,11.42,21.011,22.565,44.052,42.963,56.077,54.091,31.959,108.844-33.249,168.858-45.617,55.153-11.2,112.473,25.954,147.083,72.46a343.5,343.5,0,0,1,22.368,34.519c21.668,37.925,37.481,78.8,58.4,116.768,29.793,54.147,70.915,101.9,119.328,141.912,86.448,71.516,197.278,117.472,306.7,124.291" transform="translate(3.575 24.68)" fill="none" stroke="#00b6eb" stroke-width="0.065"/>
      <path id="Path_803" data-name="Path 803" d="M0,378.689c73.046-.059,146.564-.079,218.863-9.08a728.389,728.389,0,0,0,87.152-15.836,556.387,556.387,0,0,0,62.912-19.627C445.671,305,515.575,257.568,562.584,190.822c40.678-57.871,65.7-131.062,126.2-168.37C725.216-.105,767.8-4.195,810.076,3.686c40.013,7.46,79.582,25.66,113.264,48.216a515.344,515.344,0,0,1,164.681,180.565c11.569,21.173,22.86,44.433,43.718,56.306,55.307,31.511,111.294-37.477,172.55-51.61,56.246-12.891,114.573,24.413,149.081,71.737a329.24,329.24,0,0,1,22.183,35.216c21.357,38.774,36.584,80.872,57.072,120.032,29.2,55.853,70.077,105.23,118.6,146.179,86.7,73.2,198.355,119.064,310.522,123.484" transform="translate(1.789 23.327)" fill="none" stroke="#00b6eb" stroke-width="0.032"/>
      <path id="Path_804" data-name="Path 804" d="M0,393.448c102.575-3.665,206.279-7.5,305.154-35.062s193.967-81.56,251.122-166.817C595.365,133.262,618.343,59.5,677.959,22.429,749.4-21.989,844.576,5.712,914.743,52.111A516.63,516.63,0,0,1,1081.8,233.466c11.711,21.326,23.147,44.811,44.472,56.53,56.522,31.059,113.736-41.7,176.239-57.6,57.344-14.586,116.669,22.871,151.079,71.005s51.41,106.229,77.742,159.211c79.755,160.47,253.045,269.974,432.214,273.124" transform="translate(0 21.969)" fill="none" stroke="#00b6eb" stroke-width="1"/>
    </g>
  </g>
</svg>
