<svg xmlns="http://www.w3.org/2000/svg" xmlns:xlink="http://www.w3.org/1999/xlink" width="1920" height="492" viewBox="0 0 1920 492">
  <defs>
    <clipPath id="clip-path">
      <rect id="Rectangle_134" data-name="Rectangle 134" width="1920" height="492" transform="translate(0 691)" fill="#fff" stroke="#707070" stroke-width="1"/>
    </clipPath>
  </defs>
  <g id="Mask_Group_15" data-name="Mask Group 15" transform="translate(0 -691)" clip-path="url(#clip-path)">
    <g id="Group_178" data-name="Group 178" transform="matrix(0.122, 0.993, -0.993, 0.122, 1944.705, -965.243)">
      <path id="Path_253" data-name="Path 253" d="M2386.686,925.9c-37.436-95.645-145.958-156.62-245.1-184.693-96.974-27.459-204.452-10.455-296.983-50.4-207.5-89.574-213-388.009-366.828-553.588-26.534-28.566-59.744-53.924-98.47-58.421-38.785-4.5-76.585,12.443-111.316,30.278C1029.119,231.729,792.328,423.419,527.118,381.416c-93.141-14.755-173.579-55.719-247.444-110.7C179.458,196.118,91.341,95.724,0,0" transform="translate(239.954 102.493)" fill="none" stroke="#00b6eb" stroke-width="1"/>
      <path id="Path_254" data-name="Path 254" d="M0,0C91.341,92.531,179.591,189.574,279.478,261.308c42.421,30.514,86.947,56.458,134.711,75.542a488.234,488.234,0,0,0,110.745,29.993c143.021,20.925,277.579-26.1,407.8-93.648,108.615-56.408,214.218-127.153,321.716-182.612,35.095-18.184,73.407-34.735,112.664-30.052,39.1,4.659,72.856,29.933,99.912,58.484,52.206,55.036,88.142,124.925,119.936,197.289,9.137,20.792,17.983,41.84,27.237,62.3,25.166,55.744,50.45,106.44,81.982,152.777,30.682,45.348,67.213,86.43,114.067,116.152a297.362,297.362,0,0,0,34.406,18.8c38.057,17.658,78.347,25.953,119.586,31.656,58.037,8.054,118.008,10.942,174.824,28.167,99.458,30.189,209.018,91.04,249.879,183.685" transform="translate(237.715 119.26)" fill="none" stroke="#00b6eb" stroke-width="0.968"/>
      <path id="Path_255" data-name="Path 255" d="M0,0C91.345,89.343,179.724,183.04,279.286,251.911c42.219,29.309,86.465,54.135,133.825,72.251a487.462,487.462,0,0,0,109.638,28.113c141.4,18.947,274.336-28.5,402.09-96.6C1031.461,198.715,1134.5,127.247,1240.9,72.093c35.459-18.529,74.287-34.686,114.012-29.825,39.483,4.822,73.781,30.007,101.357,58.548,53.353,55.109,90.5,125.289,122.9,198.273,9.324,20.989,18.347,42.317,28.182,62.583,26.691,55.183,53.633,101.063,86.6,145.279,32.167,43.144,69.84,84.507,116.566,115.247a322.665,322.665,0,0,0,34.179,19.67c37.658,18.726,77.22,28.551,117.919,35.744,57.3,10.184,116.964,15.1,173.913,33.5,99.769,32.31,210.366,93.043,254.661,182.681" transform="translate(235.476 136.023)" fill="none" stroke="#00b6eb" stroke-width="0.935"/>
      <path id="Path_256" data-name="Path 256" d="M0,0C91.345,86.145,179.852,176.5,279.089,242.5c42.022,28.1,85.988,51.818,132.939,68.964A487.064,487.064,0,0,0,520.565,337.7c139.778,16.974,271.089-30.9,396.383-99.552C1021.582,180.634,1122.192,108.7,1227.363,53.6c35.867-18.79,75.168-34.637,115.36-29.6,39.862,4.984,74.7,30.081,102.794,58.612,54.5,55.183,92.871,125.653,125.874,199.262,9.506,21.186,18.716,42.79,29.132,62.863,28.207,54.617,56.748,95.724,91.217,137.786,33.584,40.974,72.462,82.573,119.065,114.332a352.457,352.457,0,0,0,33.948,20.546c37.269,19.784,76.1,31.144,116.26,39.828,56.556,12.315,115.916,19.267,173,38.834,100.083,34.425,211.719,95.04,259.443,181.677" transform="translate(233.238 152.79)" fill="none" stroke="#00b6eb" stroke-width="0.903"/>
      <path id="Path_257" data-name="Path 257" d="M0,0C91.35,82.952,179.985,169.953,278.9,233.1c41.82,26.893,85.505,49.5,132.054,65.678A487.085,487.085,0,0,0,518.38,323.123c138.16,15,267.847-33.3,390.676-102.509C1011.7,162.558,1109.783,89.973,1213.823,35.1,1250.063,16,1289.867.517,1330.531,5.737c40.241,5.142,75.621,30.155,104.236,58.671,55.65,55.262,95.232,126.022,128.841,200.246,9.693,21.383,19.085,43.267,30.081,63.144,29.722,54.056,59.848,90.391,95.833,130.292,35,38.8,75.09,80.649,121.564,113.422a388.019,388.019,0,0,0,33.717,21.417c36.881,20.851,74.977,33.737,114.6,43.916,55.813,14.45,114.868,23.429,172.088,44.172,100.388,36.541,213.062,97.033,264.221,180.664" transform="translate(230.999 169.558)" fill="none" stroke="#00b6eb" stroke-width="0.871"/>
      <path id="Path_258" data-name="Path 258" d="M0,13.632c91.35,79.759,180.241,163.212,278.7,223.7,41.678,25.6,85.023,47.178,131.168,62.391A487.318,487.318,0,0,0,516.2,322.187C652.732,335.2,780.8,286.478,901.164,216.726c100.654-58.612,196.206-131.857,299.119-186.479C1236.9,10.813,1277.2-4.291,1318.339,1.106c40.615,5.3,76.541,30.229,105.677,58.735,56.8,55.336,97.594,126.386,131.813,201.234,9.87,21.579,19.444,43.739,31.021,63.424,31.242,53.5,62.947,85.048,100.452,122.794,36.4,36.635,77.717,78.725,124.064,112.516,10.79,7.9,21.909,15.355,33.486,22.283,36.492,21.919,73.854,36.334,112.939,48,55.07,16.581,113.825,27.592,171.178,49.505,100.7,38.662,214.415,99.036,269,179.66" transform="translate(228.761 172.688)" fill="none" stroke="#00b6eb" stroke-width="0.839"/>
      <path id="Path_259" data-name="Path 259" d="M0,31.987c91.355,76.566,180.388,156.634,278.509,214.3,41.481,24.379,84.541,44.856,130.283,59.1a488.109,488.109,0,0,0,105.225,20.585C648.928,337,775.368,287.853,893.277,217.551c98.657-59.159,191.68-133.072,293.465-187.444,36.989-19.759,77.8-34.494,119.4-28.915,40.994,5.461,77.461,30.3,107.119,58.8,57.943,55.41,99.955,126.75,134.78,202.223,10.057,21.771,19.813,44.212,31.97,63.7,32.763,52.93,66.032,79.7,105.072,115.3,37.786,34.46,80.335,76.792,126.558,111.6,10.77,8.143,21.806,15.9,33.26,23.159,36.1,22.977,72.728,38.922,111.276,52.089,54.327,18.711,112.777,31.754,170.263,54.844,101.013,40.777,215.768,101.028,273.781,178.652" transform="translate(226.522 171.101)" fill="none" stroke="#00b6eb" stroke-width="0.806"/>
      <path id="Path_260" data-name="Path 260" d="M0,50.344C91.35,123.716,180.526,200.4,278.307,255.239c41.289,23.154,84.064,42.529,129.4,55.813a489.345,489.345,0,0,0,104.123,18.7c133.294,9.058,258.105-40.516,373.554-111.37,96.669-59.715,187.153-134.3,287.817-188.413,37.358-20.084,78.676-34.445,120.752-28.689,41.368,5.624,78.381,30.381,108.556,58.863,59.09,55.483,102.322,127.114,137.751,203.207,10.244,21.973,20.177,44.689,32.92,63.985,34.278,52.369,69.112,74.366,109.687,107.808,39.173,32.29,82.962,74.868,129.053,110.691,10.75,8.394,21.707,16.443,33.033,24.029,35.71,24.044,71.606,41.52,109.614,56.177,53.589,20.846,111.734,35.916,169.353,60.177,101.323,42.893,217.116,103.026,278.563,177.648" transform="translate(224.288 169.511)" fill="none" stroke="#00b6eb" stroke-width="0.774"/>
      <path id="Path_261" data-name="Path 261" d="M0,68.7c91.355,70.179,180.669,143.483,278.115,195.493,41.092,21.933,83.581,40.211,128.511,52.526a490.948,490.948,0,0,0,103.016,16.822c131.67,7.08,254.863-42.922,367.847-114.327,94.677-60.266,182.622-135.527,282.169-189.377,37.732-20.413,79.552-34.4,122.1-28.462,41.752,5.786,79.306,30.455,110,58.927,60.236,55.557,104.679,127.483,140.718,204.2,10.426,22.165,20.585,45.132,33.87,64.266,35.9,51.729,72.177,69.028,114.3,100.315,40.551,30.12,85.589,72.94,131.552,109.781,10.73,8.64,21.609,16.979,32.8,24.9,35.316,25.107,70.484,44.113,107.955,60.266C2005.8,647,2063.641,664.1,2121.4,689.53c101.634,45.013,218.465,105.028,283.34,176.644" transform="translate(222.05 167.918)" fill="none" stroke="#00b6eb" stroke-width="0.742"/>
      <path id="Path_262" data-name="Path 262" d="M0,87.065c91.355,66.986,180.807,136.91,277.918,186.091,40.9,20.708,83.1,37.889,127.631,49.235a492.665,492.665,0,0,0,101.909,14.942c130.051,5.1,251.616-45.323,362.139-117.279,92.689-60.817,178.091-136.767,276.516-190.346,38.106-20.743,80.433-34.347,123.448-28.236,42.13,5.948,80.226,30.529,111.444,58.991,61.382,55.636,107.04,127.847,143.69,205.18,10.607,22.366,20.949,45.6,34.809,64.551,37.427,51.159,75.247,63.69,118.922,92.816,41.919,27.956,88.212,71.016,134.051,108.871,10.711,8.891,21.506,17.52,32.571,25.771A619.139,619.139,0,0,0,1951.341,622c52.108,25.107,109.643,44.241,167.533,70.849C2220.816,739.979,2338.691,799.87,2407,868.48" transform="translate(219.811 166.32)" fill="none" stroke="#00b6eb" stroke-width="0.71"/>
      <path id="Path_263" data-name="Path 263" d="M0,105.434c91.355,63.788,180.944,130.337,277.726,176.684,40.7,19.493,82.622,35.572,126.74,45.948a494.923,494.923,0,0,0,100.807,13.063C633.7,344.248,753.646,293.4,861.705,220.9c90.7-61.372,173.554-138.012,270.868-191.316,38.475-21.073,81.313-34.3,124.8-28.01,42.5,6.111,81.146,30.607,112.885,59.055,62.529,55.709,109.4,128.211,146.656,206.169,10.79,22.558,21.319,46.076,35.759,64.826,38.947,50.593,78.3,58.361,123.537,85.323,43.282,25.8,90.839,69.087,136.551,107.96,10.691,9.141,21.407,18.061,32.344,26.642,34.534,27.232,68.236,49.3,104.63,68.438,51.365,27.242,108.595,48.4,166.617,76.182,102.258,49.245,221.166,109.018,292.9,174.627" transform="translate(217.572 164.718)" fill="none" stroke="#00b6eb" stroke-width="0.677"/>
      <path id="Path_264" data-name="Path 264" d="M0,123.8c91.36,60.6,181.077,123.768,277.53,167.286,40.5,18.273,82.145,33.25,125.86,42.662a498.286,498.286,0,0,0,99.7,11.178c126.809,1.141,245.279-49.914,350.725-123.188,88.836-61.737,169.013-139.262,265.22-192.28C1157.877,8.056,1201.222-4.79,1245.178,1.68c42.883,6.273,82.066,30.681,114.322,59.119,63.68,55.783,111.769,128.575,149.628,207.158,10.976,22.755,21.688,46.544,36.708,65.107,40.467,50.022,81.343,53.038,128.152,77.83,44.639,23.641,93.466,67.159,139.05,107.045,10.667,9.387,21.3,18.608,32.113,27.513,34.145,28.3,67.114,51.9,102.972,72.526,50.617,29.373,107.547,52.566,165.7,81.515,102.568,51.365,222.518,111.021,297.682,173.623" transform="translate(215.334 163.11)" fill="none" stroke="#00b6eb" stroke-width="0.645"/>
      <path id="Path_265" data-name="Path 265" d="M0,142.183c91.36,57.407,181.205,117.2,277.338,157.884,40.3,17.053,81.663,30.922,124.969,39.37a501.573,501.573,0,0,0,98.6,9.3c125.19-.836,242.046-52.31,345.018-126.14C932.78,160.313,1010.394,82.08,1105.493,29.347c39.213-21.742,83.065-34.2,127.493-27.557,43.262,6.435,82.986,30.755,115.764,59.183,64.826,55.857,114.13,128.939,152.595,208.142,11.163,22.952,22.057,47.021,37.653,65.392,41.992,49.451,84.388,47.719,132.772,70.332,45.988,21.5,96.088,65.235,141.549,106.14,10.647,9.633,21.2,19.144,31.882,28.384,33.756,29.363,65.992,54.489,101.308,76.61,49.879,31.5,106.5,56.728,164.8,86.853,102.873,53.481,223.867,113.013,302.459,172.615" transform="translate(213.095 161.5)" fill="none" stroke="#00b6eb" stroke-width="0.613"/>
      <path id="Path_266" data-name="Path 266" d="M0,160.558C91.365,214.771,181.333,271.2,277.146,309.039c40.1,15.838,81.181,28.605,124.083,36.084a505.3,505.3,0,0,0,97.491,7.419c123.567-2.819,238.814-54.706,339.31-129.1C922.906,160.622,997.956,81.67,1091.953,29.232c39.582-22.076,83.941-34.155,128.841-27.326C1264.43,8.494,1304.7,32.735,1338,61.148c65.973,55.931,116.492,129.308,155.562,209.131,11.346,23.149,22.421,47.488,38.6,65.668,43.508,48.885,87.429,42.411,137.387,62.844,47.335,19.355,98.716,63.3,144.049,105.225,10.627,9.884,21.1,19.685,31.656,29.255,33.363,30.426,64.866,57.082,99.645,80.7,49.136,33.633,105.456,60.89,163.882,92.187,103.188,55.6,225.215,115.011,307.241,171.611" transform="translate(210.857 159.888)" fill="none" stroke="#00b6eb" stroke-width="0.581"/>
      <path id="Path_267" data-name="Path 267" d="M0,178.945c91.365,51.021,181.461,104.083,276.949,139.08,39.9,14.622,80.7,26.283,123.2,32.792a510.027,510.027,0,0,0,96.384,5.54c121.948-4.8,235.576-57.107,333.6-132.049,82.893-63.375,155.38-143.045,248.275-195.183,39.946-22.416,84.821-34.106,130.184-27.1,44.02,6.75,84.831,30.9,118.652,59.306C1394.368,117.341,1446.1,191,1485.782,271.446c11.528,23.346,22.785,47.965,39.547,65.953,45.023,48.32,90.46,37.107,142,55.345,48.679,17.225,101.343,61.377,146.548,104.315,10.608,10.135,21,20.226,31.424,30.125,32.969,31.493,63.744,59.68,97.983,84.787,48.4,35.769,104.413,65.053,162.971,97.525,103.5,57.712,226.568,117.008,312.024,170.6" transform="translate(208.618 158.268)" fill="none" stroke="#00b6eb" stroke-width="0.548"/>
      <path id="Path_268" data-name="Path 268" d="M0,197.336c91.365,47.823,181.579,97.525,276.752,129.673,39.69,13.412,80.221,23.965,122.312,29.51a515.471,515.471,0,0,0,95.282,3.656c120.329-6.775,232.339-59.508,327.9-135.006,80.91-63.921,150.829-144.315,242.627-196.147,40.31-22.76,85.7-34.057,131.532-26.873,44.394,6.913,85.751,30.976,120.088,59.37,68.266,56.083,121.22,130.037,161.505,211.1,11.709,23.542,23.149,48.438,40.492,66.234,46.539,47.754,93.5,31.813,146.627,47.847,50.017,15.1,103.96,59.454,149.043,103.409,10.583,10.381,20.9,20.763,31.193,31,32.58,32.551,62.622,62.268,96.325,88.871,47.655,37.9,103.365,69.215,162.056,102.858,103.813,59.833,227.921,119.006,316.8,169.594" transform="translate(206.384 156.644)" fill="none" stroke="#00b6eb" stroke-width="0.516"/>
      <path id="Path_269" data-name="Path 269" d="M0,215.73c91.365,44.635,181.7,90.977,276.555,120.275,39.488,12.2,79.744,21.643,121.431,26.219A521.091,521.091,0,0,0,492.161,364c118.706-8.753,229.1-61.914,322.189-137.958,78.927-64.477,146.273-145.594,236.979-197.111C1092,5.821,1137.9-5.086,1184.209,2.279c44.772,7.075,86.671,31.055,121.53,59.434,69.412,56.157,123.582,130.4,164.472,212.093,11.9,23.734,23.513,48.91,41.441,66.514,48.054,47.188,96.526,26.524,151.242,40.354,51.355,12.979,106.588,57.52,151.542,102.494,10.563,10.627,20.8,21.309,30.962,31.867,32.192,33.619,61.5,64.866,94.666,92.959,46.913,40.029,102.317,73.377,161.146,108.192,104.118,61.953,229.264,121,321.578,168.59" transform="translate(204.146 155.013)" fill="none" stroke="#00b6eb" stroke-width="0.484"/>
      <path id="Path_270" data-name="Path 270" d="M0,234.131C91.37,275.572,181.815,318.559,276.363,345c39.282,10.991,79.262,19.321,120.541,22.932a527.929,527.929,0,0,0,93.072-.1c117.087-10.735,225.859-64.32,316.481-140.915C883.4,161.885,948.175,80.04,1037.784,28.837c41.038-23.454,87.454-33.968,134.233-26.425,45.151,7.237,87.591,31.129,122.971,59.5,70.558,56.231,125.943,130.765,167.439,213.077,12.084,23.936,23.882,49.387,42.391,66.794,49.564,46.627,99.557,21.25,155.857,32.861,52.7,10.873,109.215,55.6,154.037,101.584,10.549,10.878,20.7,21.85,30.74,32.738,31.8,34.681,60.369,67.459,93,97.048,46.174,42.165,101.274,77.54,160.236,113.53,104.428,64.064,230.617,123,326.361,167.581" transform="translate(201.907 153.38)" fill="none" stroke="#00b6eb" stroke-width="0.452"/>
      <path id="Path_271" data-name="Path 271" d="M0,252.537C91.37,290.78,181.933,330.421,276.167,354c39.08,9.781,78.785,17,119.66,19.646a535.521,535.521,0,0,0,91.965-1.988c115.468-12.713,222.617-66.725,310.774-143.867C873.518,162.21,935.727,79.632,1024.244,28.749c41.4-23.8,88.334-33.919,135.582-26.2,45.525,7.4,88.511,31.2,124.413,59.562,71.7,56.3,128.3,131.134,170.41,214.066,12.261,24.128,24.241,49.86,43.331,67.075,51.08,46.061,102.593,15.975,160.477,25.368,54.037,8.763,111.837,53.668,156.536,100.674,10.529,11.124,20.6,22.386,30.509,33.609,31.41,35.744,59.247,70.051,91.34,101.131,45.427,44.3,100.226,81.7,159.321,118.863,104.743,66.184,231.97,125,331.143,166.578" transform="translate(199.668 151.741)" fill="none" stroke="#00b6eb" stroke-width="0.419"/>
      <path id="Path_272" data-name="Path 272" d="M0,270.942C91.375,306,182.046,342.293,275.975,363.011c38.873,8.571,78.3,14.677,118.775,16.354a543.484,543.484,0,0,0,90.863-3.867c113.84-14.691,219.37-69.136,305.062-146.819C863.639,162.534,923.27,79.228,1010.7,28.665c41.761-24.152,89.21-33.869,136.929-25.973,45.9,7.562,89.432,31.282,125.85,59.626,72.856,56.379,130.671,131.5,173.382,215.055,12.448,24.325,24.6,50.332,44.28,67.355,52.59,45.5,105.623,10.711,165.092,17.87,55.38,6.667,114.465,51.744,159.036,99.764,10.509,11.375,20.5,22.927,30.278,34.48,31.021,36.812,58.125,72.649,89.678,105.22,44.689,46.425,99.183,85.865,158.411,124.2,105.053,68.3,233.318,127,335.92,165.569" transform="translate(197.43 150.098)" fill="none" stroke="#00b6eb" stroke-width="0.387"/>
      <path id="Path_273" data-name="Path 273" d="M0,289.358c91.375,31.857,182.159,64.817,275.778,82.661,38.667,7.37,77.825,12.359,117.889,13.068a552.79,552.79,0,0,0,89.761-5.747c112.221-16.669,216.123-71.552,299.355-149.776,70.972-66.7,128.034-150.745,214.381-200.979C1039.284,4.08,1087.25-5.234,1135.436,2.84c46.283,7.719,90.357,31.355,127.3,59.69,74,56.457,133.033,131.862,176.349,216.039,12.63,24.521,24.935,50.849,45.23,67.636,54.012,45.053,108.659,5.451,169.707,10.376,56.728,4.576,117.092,49.815,161.535,98.853,10.485,11.626,20.394,23.469,30.047,35.35,30.627,37.875,57,75.242,88.019,109.309,43.946,48.561,98.135,90.027,157.5,129.535,105.363,70.416,234.666,128.993,340.7,164.56" transform="translate(195.191 148.45)" fill="none" stroke="#00b6eb" stroke-width="0.355"/>
      <path id="Path_274" data-name="Path 274" d="M0,307.781c91.38,28.664,182.273,58.288,275.586,73.259,38.46,6.17,77.343,10.037,117,9.776a562.4,562.4,0,0,0,88.654-7.626c110.6-18.647,212.875-73.968,293.647-152.728C843.87,163.2,898.355,78.414,983.624,28.515a205.648,205.648,0,0,1,139.621-25.52c46.662,7.882,91.276,31.429,128.738,59.754,75.149,56.531,135.394,132.226,179.316,217.028,12.817,24.718,25.3,51.321,46.175,67.916,55.532,44.487,111.7.2,174.327,2.883,58.076,2.49,119.719,47.887,164.034,97.943,10.465,11.867,20.3,24.01,29.82,36.221,30.234,38.937,55.877,77.835,86.356,113.392,43.2,50.691,97.087,94.189,156.585,134.868,105.673,72.536,236.019,130.991,345.48,163.557" transform="translate(192.953 146.795)" fill="none" stroke="#00b6eb" stroke-width="0.323"/>
      <path id="Path_275" data-name="Path 275" d="M0,326.2c91.375,25.476,182.386,51.774,275.384,63.857,38.253,4.974,76.866,7.715,116.118,6.494a573.546,573.546,0,0,0,87.552-9.51c108.979-20.63,209.623-76.384,287.94-155.685,66.986-67.823,118.9-153.348,203.085-202.912,42.829-25.215,91.842-33.727,140.969-25.289,47.041,8.039,92.2,31.5,130.179,59.813,76.3,56.605,137.756,132.59,182.287,218.012,13,24.92,25.668,51.8,47.119,68.2,57.048,43.921,114.76-5.973,178.942-4.615,59.414,1.26,122.342,45.963,166.533,97.033,10.445,12.118,20.192,24.551,29.589,37.092,29.845,40,54.755,80.428,84.693,117.481,42.465,52.821,96.044,98.352,155.675,140.206,105.987,74.652,237.367,132.984,350.262,162.548" transform="translate(190.719 145.139)" fill="none" stroke="#00b6eb" stroke-width="0.29"/>
      <path id="Path_276" data-name="Path 276" d="M0,344.63c91.375,22.278,182.5,45.259,275.193,54.455,38.047,3.774,76.384,5.392,115.232,3.2A585.62,585.62,0,0,0,476.87,390.9c107.36-22.608,206.371-78.8,282.233-158.637C824.091,163.873,873.425,77.605,956.539,28.38,999.722,2.8,1049.257-5.3,1098.856,3.317c47.414,8.2,93.117,31.577,131.616,59.877,77.442,56.679,140.123,132.959,185.259,219,13.181,25.112,26.032,52.27,48.069,68.477,58.568,43.365,117.791-10.293,183.557-12.1,60.782-1.678,124.969,44.029,169.033,96.118,10.426,12.369,20.094,25.092,29.358,37.963,29.456,41.068,53.633,83.026,83.036,121.569,41.722,54.957,95,102.514,154.76,145.54,106.3,76.767,238.72,134.986,355.045,161.544" transform="translate(188.48 143.475)" fill="none" stroke="#00b6eb" stroke-width="0.258"/>
      <path id="Path_277" data-name="Path 277" d="M0,363.061c91.38,19.09,182.612,38.75,275,45.058,37.84,2.578,75.9,3.07,114.347-.089a598.031,598.031,0,0,0,85.343-13.269A542.443,542.443,0,0,0,751.211,233.168C814.2,164.213,860.957,77.2,942.994,28.322c43.537-25.943,93.6-33.629,143.67-24.836,47.793,8.364,94.036,31.651,133.057,59.941,78.588,56.753,142.484,133.323,188.226,219.99,13.368,25.309,26.4,52.743,49.013,68.758,60.089,42.8,120.846-15.537,188.177-19.6,62.145-3.754,127.6,42.106,171.532,95.213,10.4,12.615,19.99,25.628,29.132,38.834,29.063,42.125,52.507,85.613,81.367,125.653,40.984,57.087,93.953,106.676,153.855,150.873,106.6,78.888,240.063,136.984,359.817,160.536" transform="translate(186.242 141.807)" fill="none" stroke="#00b6eb" stroke-width="0.226"/>
      <path id="Path_278" data-name="Path 278" d="M0,381.5c91.38,15.892,182.73,32.251,274.8,35.651,37.633,1.392,75.419.753,113.461-3.37A612.171,612.171,0,0,0,472.5,398.629C576.619,372.066,672.2,314.841,743.319,234.083,804.17,164.44,848.49,76.8,929.454,28.268c43.887-26.307,94.479-33.579,145.013-24.61,48.177,8.526,94.967,31.729,134.5,60,79.734,56.831,144.846,133.687,191.193,220.974,13.555,25.505,26.77,53.22,49.963,69.043,61.6,42.234,123.9-20.777,192.8-27.1,63.5-5.825,130.214,40.182,174.027,94.3,10.381,12.866,19.887,26.17,28.9,39.7,28.674,43.193,51.385,88.211,79.709,129.741,40.236,59.218,92.905,110.839,152.939,156.211,106.917,81,241.416,138.976,364.6,159.527" transform="translate(184.003 140.133)" fill="none" stroke="#00b6eb" stroke-width="0.194"/>
      <path id="Path_279" data-name="Path 279" d="M0,399.949c91.385,12.7,182.853,25.752,274.607,26.248,37.432.2,74.942-1.569,112.58-6.662A627.359,627.359,0,0,0,470.316,402.5c102.5-28.546,196.452-86.194,265.116-167.5C794.286,164.81,836.018,76.4,915.914,28.22,960.15,1.544,1011.269-5.31,1062.276,3.836c48.551,8.684,95.886,31.8,135.945,60.069,80.88,56.905,147.207,134.051,194.159,221.963,13.737,25.7,27.134,53.692,50.913,69.318,63.119,41.678,126.956-26.007,197.411-34.588,64.866-7.9,132.841,38.253,176.526,93.387,10.362,13.112,19.789,26.716,28.669,40.576,28.28,44.261,50.263,90.809,78.047,133.83,39.5,61.348,91.862,115,152.029,161.545,107.227,83.119,242.77,140.979,369.382,158.524" transform="translate(181.764 138.454)" fill="none" stroke="#00b6eb" stroke-width="0.161"/>
      <path id="Path_280" data-name="Path 280" d="M0,418.4c91.385,9.51,182.971,19.267,274.415,16.846,37.225-.984,74.46-3.892,111.69-9.948a642.644,642.644,0,0,0,82.027-18.913c100.876-30.524,193.2-88.6,259.409-170.455,56.866-70.745,96-159.921,174.834-207.749,44.58-27.05,96.231-33.486,147.709-24.157,48.93,8.846,96.807,31.877,137.382,60.133C1269.5,121.134,1337.04,198.57,1384.6,287.1c13.919,25.9,27.5,54.17,51.852,69.6,64.645,41.112,130.022-31.247,202.031-42.086,66.234-9.973,135.469,36.325,179.026,92.482a472.461,472.461,0,0,1,28.438,41.446c27.892,45.318,49.141,93.4,76.388,137.914,38.755,63.483,90.814,119.163,151.114,166.878,107.542,85.24,244.117,142.976,374.164,157.52" transform="translate(179.526 136.768)" fill="none" stroke="#00b6eb" stroke-width="0.129"/>
      <path id="Path_281" data-name="Path 281" d="M0,436.854c91.39,6.312,183.1,12.782,274.218,7.444,37.028-2.17,73.983-6.214,110.809-13.24a658.94,658.94,0,0,0,80.92-20.792c99.257-32.5,189.963-91,253.7-173.407,54.873-71.3,91.419-161.249,169.185-208.718C933.759.718,985.941-5.294,1037.892,4.211c49.3,9.009,97.727,31.956,138.824,60.2,83.178,57.053,151.935,134.784,200.1,223.935,14.1,26.1,27.862,54.642,52.8,69.884,66.16,40.546,133.087-36.482,206.646-49.584,67.606-12.039,138.091,34.4,181.52,91.572A449.513,449.513,0,0,1,1846,442.532c27.5,46.386,48.015,95.995,74.725,142,38.012,65.614,89.766,123.326,150.2,172.216,107.847,87.355,245.466,144.969,378.936,156.511" transform="translate(177.287 135.079)" fill="none" stroke="#00b6eb" stroke-width="0.097"/>
      <path id="Path_282" data-name="Path 282" d="M0,455.33c91.39,3.119,183.242,6.44,274.027-1.963a875.666,875.666,0,0,0,109.918-16.521,678.056,678.056,0,0,0,79.818-22.676c97.633-34.48,186.715-93.4,247.995-176.364,52.885-71.847,86.755-162.7,163.537-209.682C920.515.247,973.282-5.264,1025.7,4.419c49.683,9.171,98.647,32.029,140.266,60.261,84.324,57.126,154.3,135.148,203.069,224.924,14.288,26.288,28.231,55.114,53.752,70.16,67.675,39.985,136.177-41.6,211.261-57.072,69-14.007,140.718,32.472,184.019,90.657a429.794,429.794,0,0,1,27.985,43.188c27.109,47.449,46.893,98.588,73.063,146.091,37.274,67.744,88.723,127.488,149.294,177.549,108.157,89.476,246.819,146.971,383.719,155.5" transform="translate(175.048 133.37)" fill="none" stroke="#00b6eb" stroke-width="0.065"/>
      <path id="Path_283" data-name="Path 283" d="M0,473.786c91.39-.074,183.37-.1,273.825-11.36a911.307,911.307,0,0,0,109.038-19.813,696.12,696.12,0,0,0,78.711-24.556c96.014-36.462,183.473-95.808,242.287-179.316,50.893-72.4,82.2-163.975,157.889-210.651C907.334-.131,960.613-5.248,1013.5,4.612c50.061,9.333,99.567,32.1,141.707,60.325,85.466,57.205,156.659,135.513,206.036,225.908,14.475,26.489,28.6,55.591,54.7,70.445,69.2,39.424,139.242-46.888,215.882-64.571,70.371-16.128,143.345,30.544,186.519,89.751a411.919,411.919,0,0,1,27.754,44.059c26.721,48.512,45.771,101.181,71.4,150.174,36.531,69.879,87.675,131.655,148.379,182.888,108.472,91.587,248.167,148.964,388.5,154.494" transform="translate(172.815 131.677)" fill="none" stroke="#00b6eb" stroke-width="0.032"/>
      <path id="Path_284" data-name="Path 284" d="M0,492.252c128.334-4.585,258.081-9.383,381.785-43.867S624.461,346.343,695.969,239.677C744.874,166.727,773.622,74.437,848.21,28.061,937.587-27.511,1056.667,7.146,1144.455,65.2a646.368,646.368,0,0,1,209.013,226.9c14.652,26.681,28.959,56.064,55.64,70.725,70.716,38.859,142.3-52.177,220.5-72.064,71.744-18.248,145.968,28.615,189.018,88.836s64.32,132.9,97.264,199.193c99.783,200.767,316.589,337.77,540.752,341.711" transform="translate(170.576 129.979)" fill="none" stroke="#00b6eb" stroke-width="1"/>
    </g>
  </g>
</svg>
