{
    "name": "acf/content-boxes-six",
    "title": "Content Boxes Six",
    "description": "Content Boxes Six",
    "category": "theme",
    "icon": "admin-comments",
    "apiVersion": 2,
    "keywords": [
        "menu",
        "contact"
    ],
    "acf": {
        "mode": "preview",
        "renderTemplate": "render.php"
    },
    "styles": [
        { "name": "default", "label": "Default", "isDefault": true }
    ],
    "supports": {
        "anchor": true,
        "color": {},
        "alignText": true,
        "spacing": {},
        "typography": {},
        "fullHeight": true
    }
}