{
    "name": "acf/case-study-feed",
    "title": "Case Study Feed",
    "description": "Case Study  Feed",
    "category": "theme",
    "icon": "admin-comments",
    "apiVersion": 2,
    "keywords": [],
    "acf": {
        "mode": "preview",
        "renderTemplate": "render.php"
    },
    "styles": [
        { "name": "default", "label": "Default", "isDefault": true }
    ],
    "supports": {
        "anchor": true,
        "color": {
            "text": true
        },
        "alignText": true,
        "spacing": {},
        "typography": {},
        "fullHeight": true
    }
}